"dirceane.costa@gmail.com";"DIRCEANE COSTA BONFIM DOS SANTOS";"Dirce";"F";"71986750320";"BA";0;0
"wilsonfrancisco@hotmail.com";"WILSON FRANCISCO";"wilson";"F";"71991536327";"BA";0;0
"santossacramento@hotmail.com";"LUIS SACRAMENTO DOS SANTOS";"Sacramento";"F";"71999769656";"BA";0;0
"marialima.aguia@gmail.com";"MARIA JOSE SANTOS LIMA";"Maria Jose";"F";"71992003183";"BA";0;0
"danielacarvalho.imoveis@gmail.com";"DANIELA SILVA CARVALHO";"Daniela";"F";"71985065976";"BA";0;0
"vsmalmeida@yahoo.com.br";"VITOR SALLENAVE MOREIRA ALMEIDA";"vitor";"F";"71988822307";"BA";0;0
"barbaramseguros@yahoo.com.br";"BARBARA MARIA MONTEIRO";"barbara";"F";"71988990040";"BA";0;0
"landulfo-neto@hotmail.com";"PLT CORRETORA DE SEGUROS LTDA";"neto";"J";"71999715484";"BA";0;0
"marcondesbritto@hotmail.com";"KALINE CORRETORA DE SEGUROS DE VIDA LTDA";"Marcondes";"J";"71987294685";"BA";0;0
"robsonand@gmail.com";"SANTO EXPEDITO ADMINISTRADORA E CORRETORA DE SEGUROS LTDA";"Robson";"J";"71988143338";"BA";1;0
"ivanazzi15@gmail.com";"JAIR AMARAL DE OLIVEIRA";"Jair";"F";"71991810308";"BA";0;0
"fabiane.status@gmail.com";"STATUS SERV CORRETAGEM DE SEGUROS LTDA";"Gilson";"J";"71999900041";"BA";1;0
"wilson@visacorretora.com.br";"VISA CORRETORA DE SEGUROS LTDA";"Wilson";"J";"71988565097";"BA";1;0
"josereissantana@bol.com.br";"JOSE REIS DE SANTANA - RECOMCCEL CORRETORA";"Reis";"F";"71986498869";"BA";0;0
"lourdesaraujo7@hotmail.com";"MARIA DE LOURDES FERREIRA DE ARAUJO";;"F";"71987606395";"BA";0;0
"fran.corretordeseguros@gmail.com";"FRANCISCO ASSIS DE MATOS";;"F";"71991332504";"BA";0;0
"contato@bmfseguros.com.br";"BMF ADMINISTRADORA E CORRETORA DE SEGUROS LTDA";;"J";"71999838330";"BA";1;0
"barreto.saude@hotmail.com";"JONAS BARRETO DOS SANTOS";"Jonas";"F";"71999687986";"BA";0;0
"leidepina@hotmail.com";"LEIDENALVA SOUSA DE PINA";"Leide";"F";"71988266177";"BA";0;0
"longlife.saude@hotmail.com";"JOSE ROBERTO LIMA DOS SANTOS";"Jose Roberto";"F";"71996125497";"BA";0;0
"joranramos@ig.com.br";"JORGE ANTONIO RAMOS";"Jorge";"F";"71987973413";"BA";0;0
"oliver.th@hotmail.com";"MARIA THELMA OLIVEIRA BATISTA";"Thelma";"F";"71992931769";"BA";0;0
"jpaseg@uol.com.br";"JPA CORRETORA DE SEGUROS LTDA";;"J";"71999430232";"BA";1;0
"deneasantor@hotmail.com";"DENIVALDO ANUNCIACAO DOS SANTOS";;"F";"71992029950";"BA";0;0
"grupouniao95@gmail.com";"GRUPO UNIAO COMERCIO E SERVICOS LTDA - ME";;"J";"71988355650";"BA";0;0
"asoutoseguros@terra.com.br";"ANTONIO CARLOS SOUTO DOS SANTOS";"carlos";"F";"71992981097";"BA";0;0
"mj.0305@hotmail.com";"MARIA JOSE MACEDO BORGES";;"F";"71981473068";"BA";0;0
"devirseg@hotmail.com";"DEVIR CORRETORA DE SEGUROS LTDA";;"J";"71987114593";"BA";1;0
"marise.reis@hotmail.com";"MARISE DE SOUSA REIS";"Marise";"F";"71999830928";"BA";0;0
"contato@guimararescorretora.com.br";"GUIMARAES CORRETORA DE SEGUROS";;"J";"71981995155";"BA";1;0
"macro.saude@uol.com.br";"MACRO SAUDE - JOSE CARLOS VIEIRA DOS SANTOS ME";"Carlos";"J";"71983765077";"BA";0;0
"cs.monaco@hotmail.com";"COSME SOARES MONACO";"Monaco";"F";"71999511872";"BA";0;0
"regina2007_@hotmail.com";"REGINA FERREIRA DUARTE SANTOS";"Regina";"F";"71987889934";"BA";0;0
"etraseguros@gmail.com";"ETRA CORRETORA DE SEGUROS LTDA";"Emilio";"J";"71987862159";"BA";1;0
"orionnadm@globo.com";"ORIONN CORRETORA DE SEGUROS LT";;"F";"71999852950";"BA";0;0
"orlandomoraess@gmail.com";"ORLANDO MORAES MACHADO";"Orlando";"F";"73999904005";"BA";0;0
"porfiriovitalsf@hotmail.com";"PORFIRIO VITAL DE SANTANA FILHO";;"F";"71991464326";"BA";0;0
"fatimagamorim@gmail.com";"MARIA DE FATIMA GOUVEIA AMORIM";"Fatima";"F";"14072341146";"BA";0;0
"flaviocardial@bol.com.br";"MULTIPREV CONSULTORIA E CORRETAGEM DE SEGUROS DE VIDA LTDA - ME";"Flavio";"J";"71988024917";"BA";0;0
"george@gcarneiro.com.br";"CD - SEG CORRETORA DE SEGUROS LTDA";"george";"J";"71999683018";"BA";1;0
"janethqueiros@hotmail.com";"JANETE QUEIROS DE SOUZA";"Janete";"F";"71991339967";"BA";0;0
"acl2.dos.santos@hotmail.com";"ANTONIO CARLOS LEAL DOS SANTOS";"Carlos";"F";"71988811511";"BA";0;0
"eduardo@mdeseguros.com.br";"MDE ADM E CORRET DE SEGUROS LTDA";;"J";"71988230002";"BA";1;0
"italvanovais@hotmail.com";"ITALVA NOVAIS ALMEIDA";"Italva";"F";"71999879155";"BA";0;0
"arturgallo@gmail.com";"ARTUR VICENTE GALLO PEDREIRA";"arthur";"F";"71991145402";"BA";0;0
"ontarget@terra.com.br";"ON TARGET ADMINISTRADORA E CORRETORA DE SEGUROS LTDA";;"J";"71999747461";"BA";1;0
"acorretora@ig.com.br";"ALLUMEN CORRETORA DE SEGUROS";;"F";"71999823069";"BA";0;0
"figueiredoseguros@hotmail.com";"MARIA IZABEL FIGUEIREDO DOS SANTOS";"Izabel";"F";"713892435";"BA";0;0
"a4corretora@gmail.com";"A4 ADMINISTRADORA E CORRETORA DE SEGUROS LTDA EPP";;"J";;"BA";1;0
"marciagoes13@hotmail.com";"MARCIA CAMPOS GOES ALVES";"Marcia";"F";"71988238658";"BA";0;0
"jocemiaroxinhoseguros@hotmail.com";"JOCEMIA ROXINHO DOS SANTOS";"Jocemia";"F";"71999311899";"BA";0;0
"gandhiseguros@gmail.com";"GANDHI COLOMBO SANTANA";"Gandhi";"F";"71988046460";"BA";0;0
"vcbrito1010@hotmail.com";"VALMIRA CALDAS BRITO";"valmira";"F";"71988381375";"BA";0;0
"servebem@hotmail.com";"SERVEBEM CORRETORA DE SEGUROS LTDA";;"J";"71991142007";"BA";1;0
"angela_m.seguros@hotmail.com";"ANGELA MARIA BRAZ MIRANDA";;"F";"71983484034";"BA";0;0
"josi0204@hotmail.com";"ANTONIO EMANUEL BARROS TEIXEIRA ALVES";"emanuel";"F";"71999563590";"BA";0;0
"coseba@uol.com.br";"COSEBA CORRETORA DE SEGUROS DA BAHIA LTDA";"Evelyn";"J";"71999562844";"BA";1;0
"ciadoseguro@ciadoseguro.com";"CIA DO SEGURO CORRETORA DE SEGUROS LTDA";"Delio";"J";"71991235243";"BA";1;0
"cosmeneto1@hotmail.com";"COSME JOSE DE FREITAS NETO";;"F";"71988639546";"BA";0;0
"davidseguros@hotmail.com";"DAVID ARAUJO DE SOUZA";"David";"F";"71988392307";"BA";0;0
"lorenabayres@hotmail.com";"BAYRES CORRETORA DE SEGUROS";;"F";"71992280076";"BA";0;0
"dinalva.nunes@supercredbra.com.br";"DINALVA VIEIRA NUNES LORENZO";"Dinalva";"F";"71992321816";"BA";0;0
"natan.neves@ig.com.br";"NATANAEL ALVES NEVES";"Natanael";"F";"71988453919";"BA";0;0
"coutoset@hotmail.com";"JOILSON COUTO DOS SANTOS";"Joilson";"F";"71987147477";"BA";0;0
"s.almeidaseguros2012@hotmail.com";"SANDRO ALMEIDA - ALEXANDRO ALMEIDA RIBEIRO";"sandro";"M";"74991175041";"BA";0;0
"fransouzaseguros9@hotmail.com";"FRANCISCA JESUS DE SOUZA";"Francisco";"F";"71988340830";"BA";0;0
"fernando.neto386@gmail.com";"FERNANDO ARISTIDES GONCALVES NETO";"Fernando";"F";"71993742397";"BA";0;0
"profiseg@terra.com.br";"PROFI-SEG PROFISSIONAL ADMINISTRADORA E CORRETORA DE SEGUROS LTDA";;"J";"71988758074";"BA";1;0
"atendimento@mendoncajr.com.br";"MENDONCA JUNIOR ADMINISTRACAO E CORRETAGEM DE SEGUROS LTDA";;"J";;"BA";1;0
"ggsconsultor@gmail.com";"GILSON GONZAGA DOS SANTOS";"Gilson";"F";"71987868026";"BA";0;0
"eduardo.almeida.2404@gmail.com";"ASSEGURAR CONSULTORIA E CORRETAGEM DE SEGUROS LTDA";"eduardo";"J";"71999799300";"BA";1;0
"rubemcorr@yahoo.com.br";"RUBEM PACHECO DOS SANTOS";;"F";"71991236081";"BA";0;0
"houseseguros@houseseguros.com.br";"HOUSE CORRETORA DE SEGUROS LTDA";;"J";"71981277664";"BA";1;0
"jamesseg@ig.com.br";"JAMES FERREIRA CORRETORA DE SEGUROS LTDA";;"J";"71999696934";"BA";1;0
"rosana@carvalhofeitosaseguros.com";"CARVALHO FEITOSA SERVICOS ADMINISTRACAO E CORRETAGEM DE SEGUROS LTDA";;"J";"71991353534";"BA";1;0
"luisandrade08@hotmail.com";"LUIS ALBERTO FERNANDES ANDRADE";"Luis";"F";"71987831571";"BA";0;0
"flavioparana9@hotmail.com";"FLAVIO ALMEIDA PARANA";;"F";"71991878770";"BA";0;0
"analucia.camargo@yahoo.com.br";"ANA LUCIA ANDRADE CAMARGO";;"F";"71988366063";"BA";0;0
"gestec@gestecseguros.com.br";"GESTEC CORRETORA DE SEGUROS LTDA";"Cristiano";"J";"71991108609";"BA";1;0
"meggaconsultoria@gmail.com";"FRANCISCO PERNET JUNIOR";"Pernet";"F";"71999633134";"BA";1;0
"cyanseguros@bol.com.br";"CYAN ADMINISTRADORA E CORRETORA DE SEGUROS LTDA";;"J";"71988144446";"BA";1;0
"samarasarmento@yahoo.com.br";"SAMARA LOBO SARMENTO";"Samara";"F";"71988721127";"BA";0;0
"claudiagroove@hotmail.com";"CLAUDIA PEREIRA DOS SANTOS";"Claudia";"F";"71988074987";"BA";0;0
"evaflm@hotmail.com";"ASPOS REPRESENTACOES E COMERCIO DE PLANO DE SAUDE LTDA - ME";;"J";"71993234361";"BA";0;0
"edison_souza@ig.com.br";"EDISON SOUZA DOS SANTOS";"Edison";"F";"71988599483";"BA";0;0
"safelife@ig.com.br";"BASTOS ALMEIDA CORRETORA DE SEGUROS DE VIDA LTDA";"Silvia";"J";"71988197379";"BA";1;0
"valorseg@hotmail.com";"VALOR ADMINISTRADORA E CORRETORA DE SEGUROS LTDA";;"J";"71988870667";"BA";1;0
"calseguros@hotmail.com";"CARLOS ALBERTO DOS SANTOS";;"F";"71986004590";"BA";0;0
"fernando@boaseg.com.br";"ENGENHO CORRETORA DE SEGUROS LTDA";"Fernando";"J";"71992708953";"BA";1;0
"travessacanuto@hotmail.com";"PAULO SERGIO TEIXEIRA SANTOS";"paulo";"F";"71999494982";"BA";0;0
"mc.consultora@hotmail.com";"MARIA APARECIDA RIBEIRO";"Maria";"F";"71991106665";"BA";0;0
"soteropolitana.ba@bol.com.br";"SOTEROPOLITANA ADMINISTRADORA E CORRETORA DE SEGUROS LTDA";;"J";"71981113428";"BA";1;0
"clenio@aconkaguaseguros.com.br";"ACONKAGUA ADMINISTRACAO E CORRETAGEM DE SEGUROS LTDA";"Clenio";"J";"71981742992";"BA";1;0
"rogerioseguros@oi.com.br";"J & R CONSULTORIA COMERCIO E SERVICOS LTDA";"Rogerio";"J";"71987231380";"BA";0;0
"josealvares53@gmail.com";"LEITE ALVARES CORR DE SEGUROS CONSULTORIA E SERVICOS LTDA";"Jose";"J";"71981125638";"BA";1;0
"cristianelimad@yahoo.com.br";"CRISTIANE LIMA DE OLIVEIRA - MEI";"Cristiane";"M";"71987269496";"BA";0;0
"jeniltonbo@hotmail.com";"JENILTON BORGES OLIVEIRA";"Jenilton";"F";"71988933806";"BA";0;0
"edna_conceicao@hotmail.com";"EDNA CONCEICAO BOMFIM";"Edna";"F";"71988981301";"BA";0;0
"lojaodamoda.selma@hotmail.com";"SELMED - CREDBRASIL SERVIÇOS LTDA ME";"Selma";"J";"75981015148";"BA";0;0
"alessandra@sabeseguros.com.br";"SABE CORRETORA E ADM DE SEGUROS LTDA";;"J";"71991476591";"BA";1;0
"robertomicucci@hotmail.com";"MICUCCI CORRETORA DE SEGUROS LTDA";;"J";"71999736506";"BA";1;0
"wmsseguros@hotmail.com";"WILLIAMS DE SOUZA";"williams";"F";"71987925245";"BA";0;0
"seguros@natuseg.com.br";"YON CORRETORA DE SEGUROS LTDA";;"J";"71981010600";"BA";1;0
"nelvasconcelos7@gmail.com.br";"NELSIMARA VASCONCELOS OLIVEIRA";"nelsimara";"F";"71999624774";"BA";0;0
"usagecorretoradeseguros@yahoo.com.br";"USAGE CORRETORA DE SEGUROS";;"J";;"BA";1;0
"amorim.cred@hotmail.com";"VIVIANE FRANCO DE CARVALHO";"viviane";"F";"71988056596";"BA";0;0
"rochasantana@hotmail.com";"ALEXANDRE SANTOS SANTANA";;"F";"71987841229";"BA";0;0
"joseferreiracorretor@yahoo.com.br";"JOSE FERREIRA DOS SANTOS";"Ferreira";"F";"71988861473";"BA";0;0
"neuzabradesco@bol.com.br";"EDINEUZA VELAME SIMOES GALVAO";;"F";"71988151016";"BA";0;0
"samuel22neto@bol.com.br";"SAMUEL AYRES DO NASCIMENTO NETO";"samuel";"F";"71986665415";"BA";0;0
"fidelitas@fidelitasseguros.com.br";"FIDELITAS CORRETORA DE SEGUROS LTDA";;"J";"71981198373";"BA";1;0
"valconsultora@hotmail.com";"VALDETE COELHO DA SILVA QUINTELA";"valdete";"F";"71999999303";"BA";0;0
"betto3101@hotmail.com";"ROBERTO ABREU SANTANA";"roberto";"F";"71988134989";"BA";0;0
"seguroscosta@hotmail.com";"GEVANIO ALVES COSTA";;"F";"71993574735";"BA";0;0
"lucasmtk@gmail.com";"LUCAS ALEXANDRE DE ANDRADE";"Lucas";"F";"71991626855";"BA";0;0
"tatiana.mba@hotmail.com";"TATIANA MACEDO BORGES SANTOS";;"F";"71999019230";"BA";0;0
"lucilenecarvalho@cprcorretora.com.br";"CPR ADM E CORRETAGEM  DE SEGUROS LTDA";;"J";;"BA";1;0
"raimundopeixinho@hotmail.com.br";"RAIMUNDO GOMES PEIXINHO";;"F";"71999480616";"BA";0;0
"jayme@granadaseguros.com.br";"NOVAHERA ADM E COR DE SEGUROS LTDA";;"J";;"BA";1;0
"dalex@dalexseguros.com.br";"DALEX CORRETORA DE SEGUROS LTDA";;"J";"71992011823";"BA";1;0
"joilsonchagasamaral@hotmail.com";"JOILSON CHAGAS AMARAL";"Joilson";"F";"71999513003";"BA";0;0
"dete.passos@gmail.com";"ODETE CAVALCANTE PASSOS";"odete";"F";"71996833124";"BA";0;0
"corsetseguros@hotmail.com";"CORSET ADMINISTRACAO CORRETAGEM DE SEGUROS E SERVICOS TECNICOS  LTDA";;"J";"71991573491";"BA";1;0
"internet.com@oi.com.br";"M A COMERCIO & SERVICOS LTDA";;"J";;"BA";0;0
"marcosrocha45@hotmail.com";"MSM CONSULTORIA E CORRETORA DE SEGUROS DE VIDA LTDA";"Marcos";"J";"75999970028";"BA";0;0
"gabi.com88@hotmail.com";"GABRIELA CAROLINE SANTOS BARBOSA";;"F";"71987787646";"BA";0;0
"debora.soledade1@gmail.com";"DEBORA PEREIRA SOLEDADE";"Debora";"F";"71988430604";"BA";0;0
"wesleyhan10@hotmail.com";"UESLEI CARVALHO DOS SANTOS";;"F";;"BA";0;0
"wesleyfiuza@me.com";"WESLEY FIUZA OLIVEIRA";;"F";"71991889937";"BA";0;0
"corretora@multimodalseguros.com.br";"MULTIMODAL ADM E CORRETAGEM DE SEG S/C LTDA";;"J";"71988867821";"BA";1;0
"deraldobarros2017@outlook.com";"DERALDO SILVA BARROS";;"F";"71988781450";"BA";0;0
"publicitaria_priscila@hotmail.com";"PRISCILA COROA AQUINO DE FREITAS";;"F";"71992417014";"BA";0;0
"monica.seguros@hotmail.com";"MONICA DE ARAUJO BENTO RAMOS";"Monica";"F";"71992239225";"BA";1;0
"ritacassia1953@hotmail.com";"RITA DE CASSIA DA SILVA";;"F";"71981303806";"BA";0;0
"deu021@hotmail.com";"ADELAIDE CARVALHO DOS SANTOS";;"F";"71988632766";"BA";0;0
"contato@aliancatrindade.com.br";"ALIANCA TRINDADE CORRETORA DE SEGUROS LTDA";;"J";;"BA";0;0
"trianonseguros@yahoo.com.br";"TRIANON ASSESSORIA E CORRETAGEM DE SEGUROS LTDA";;"J";"71999838392";"BA";1;0
"rosangelacrisvilasboas@hotmail.com";"ROSANGELA CRISOSTOMO VILAS BOAS";"rosangela";"F";"71988242745";"BA";0;0
"tulio.ba@uol.com.br";"CRESCENTE ADMINISTRADORA E CORRETORA DE SEGUROS LTDA";;"J";"71991667242";"BA";1;0
"lopesx07@hotmail.com";"LUIS CARLOS DA CONCEICAO LOPES";"Luis";"F";"71988463003";"BA";0;0
"investplan@investplan.com.br";"INVESTPLAN CORRETORA DE SEGUROS LTDA";;"J";"71981226842";"BA";1;0
"raphaelmelgaco@yahoo.com.br";"UNISEG CORRETORA DE SEGUROS DE SAUDE LTDA";;"J";"75981489261";"BA";0;0
"romilsonsaude@hotmail.com";"ROMILSON DE SOUSA SANTOS";"romilson";"F";"71987175106";"BA";0;0
"atlas.adm@terra.com.br";"ATLAS ADMINISTRADORA E CORRETORA DE SEGUROS LTDA";;"J";"71991996968";"BA";1;0
"toninhahinsching@gmail.com";"ANTONIA MARIA DE SOUZA HINSCHING";"antonia";"F";"71987271067";"BA";0;0
"marle22matos@gmail.com";"MARLENE MATOS DE SOUSA";"Marlene";"F";"71988280690";"BA";0;0
"certon.contabilidade@hotmail.com";"CERTON ADMINISTRACAO E CORRETAGEM DE SEGUROS LTDA";;"J";"71992323422";"BA";1;0
"taniafetal@hotmail.com";"TANIA MARIA DIAS FETAL";"tania";"F";"71988289298";"BA";0;0
"vivaassistencia@yahoo.com.br";"VIVA ADMINISTRADORA DE ASSISTENCIA FAMILIAR LTDA";;"J";"71991254351";"BA";0;0
"contato@sidartaseguros.com.br";"SIDARTA CORRETORA DE SEGUROS LTDA";;"J";"71999831569";"BA";1;0
"vanessacarvalho01@hotmail.com";"MARIA DA CONCEICAO CARVALHO DE ARAUJO";;"F";"71987251272";"BA";0;0
"valdenor@aliancabrasileira.com.br";"ALIANCA BRASILEIRA CORRETORA DE SEGUROS LTDA";;"J";"71999814939";"BA";1;0
"eujacio@mediatoreseguros.com";"MEDIATORE RIBEIRO LOPES CONSULTORIA CORRETORA E ADMINISTRADORA DE SEGUROS LTDA ME";"Hudson";"J";"71991289802";"BA";1;0
"adriano@vtallbrazil.com.br";"ADRIANO RIBEIRO SANTOS";"adriano";"F";"71999568172";"BA";0;0
"noarosario@hotmail.com";"NOELIA ROSARIO DA SILVA";;"F";"71988527110";"BA";0;0
"bannsegurcorretora@hotmail.com";"BENEDITO ANTONIO NASCIMENTO";"BENEDITO";"F";"71983615283";"BA";0;0
"saj@maxwave.com.br";"SAJ ADMINISTRACAO E CORRETAGEM DE SEGUROS LTDA";;"J";;"BA";1;0
"emprestimos@natuseg.com.br";"YON INTERMEDIACAO DE NEGOCIOS LTDA";;"J";"71981010600";"BA";0;0
"rita.cardim@yahoo.com.br";"RITA DE CASSIA CARDIM DE SOUZA";;"F";"71988492705";"BA";0;0
"terezabitencourt@gmail.com";"TEREZA MARIA BITENCOURT GAMA MACHADO";;"F";"71988195380";"BA";0;0
"jussarafernandes.seguros@hotmail.com";"JUSSARA CARNEIRO FERNANDES";;"F";"71987726053";"BA";0;0
"guimoni1@hotmail.com";"MONICA DOS SANTOS RIBEIRO";"Monica";"F";"75991772055";"BA";0;0
"sergiosantos.bm@hotmail.com";"MANOEL SERGIO BOMFIM DOS SANTOS";;"F";"71988434123";"BA";0;0
"vitacor@veloxmail.com.br";"VITACOR CORRETORA DE SEGUROS LTDA";;"J";"71999573171";"BA";1;0
"marleidemedrado@hotmail.com";"MARLEIDE MEDRADO ROCHA";;"F";"71986351214";"BA";0;0
"marcusoli01@gmail.com";"MARCUS DE OLIVEIRA DESIDERIO";;"F";"71993258339";"BA";0;0
"mm_consult@hotmail.com";"MUNDOCRED - RCM SOLUCOES FINANCEIRAS LTDA";;"J";"71993359366";"BA";0;0
"twi1964@hotmail.com";"ISAQUE WASHINGTON TEIXEIRA";"Isaque";"F";"71988658121";"BA";0;0
"leduardovital@outlook.com";"LUIZ EDUARDO SILVA VITAL";"Luiz";"F";"71999925270";"BA";0;0
"bomfimebomfim@hotmail.com";"ALEXSANDRO BONFIM MATOS - EMPRESARIO INDIVIDUAL";;"J";"71983985151";"BA";0;0
"geanemacedo@yahoo.com";"GEANE DE ALMEIDA MACEDO";;"F";"71991469864";"BA";0;0
"adriano@pensataseguros.com.br";"PENSATA SEGUROS CORRETORA E ADMINISTRADORA DE SEGUROS LTDA ME";;"J";"71991256727";"BA";1;0
"nadiaeffren@hotmail.com";"NADIA MARIA EFFREN SILVA";;"F";"71986688228";"BA";0;0
"munique.silva@hotmail.com";"MUNIQUE OLIVEIRA DA SILVA ROSA";"Munique";"F";"71987442519";"BA";0;0
"nerr_1912@hotmail.com";"IVANEI SOARES ATHAYDE";"Ivanei";"F";"71988671815";"BA";0;0
"sulamitagil@hotmail.com";"G BISPO DOS SANTOS - ME";;"J";"71987322243";"BA";0;0
"kn2.carvalho@gmail.com";"KLAYTON NIELSON DO NASCIMENTO CARVALHO";;"F";"71988169585";"BA";0;0
"nyldoreis@gmail.com.br";"GIVANILDO DA SILVA REIS";;"F";"71988201706";"BA";0;0
"elianaseguros@gmail.com";"MARIA ELIANA SANCHES GONCALVES DE ALMEIDA";;"F";"71988210511";"BA";0;0
"edvalsbrito@hotmail.com";"HIPERCREDITO CENTRAL DE CREDITO LTDA";;"J";"71992099841";"BA";0;0
"wk.solucoes@hotmail.com";"RICARDO LIMA SANTOS";;"F";"71983660277";"BA";0;0
"marcia@voltcorretora.com.br";"VOLT CORRETORA DE SEGUROS LTDA";;"J";"71988912004";"BA";1;0
"eridabeatriz.santos@gmail.com";"ERIDA BEATRIZ DOS SANTOS";"Erida";"F";"71986240374";"BA";0;0
"vanborboleta09@hotmail.com";"VANESSA OLIVEIRA DAMIAO";;"F";"71988013959";"BA";0;0
"dilck_cabral@hotmail.com";"DILCK FRANCA CABRAL NETA";;"F";"71992773998";"BA";0;0
"valneisouza71@hotmail.com";"W & F REPRESENTACOES - W & F COMERCIO DE COLCHOES LTDA";;"J";"71988291141";"BA";0;0
"mmcsegurosaude@hotmail.com";"MMC REPRESENTACOES E SEGUROS LTDA";;"J";"71988445567";"BA";0;0
"emprestimos@hotmail.com";"REGINALDO BATISTA DE SOUZA";;"F";"74991951929";"BA";0;0
"jairtelis@hotmail.com";"JAIR TELIS DA CUNHA";"Jair";"F";"71988091979";"BA";0;0
"neiva.braga@globo.com";"NEIVA & BRAGA CORRETORA DE SEGUROS";;"J";"71988871138";"BA";1;0
"newton-48@hotmail.com";"NEWTON DE CARVALHO - MEI";"newton";"M";"71993482981";"BA";0;0
"anepmendes@hotmail.com.br";"ANE PEREIRA MENDES DE MACEDO";;"F";"71987254211";"BA";0;0
"pchaves.producoes@gmail.com";"ANA PAULA DE SOUZA CHAVES CORREIA";;"F";"71988057072";"BA";0;0
"fernanda@chawom.com.br";"CHAW OM CONSULTORIA E CORRETORA DE SEGUROS LTDA";;"J";"71992440428";"BA";1;0
"contato@rsv.com.br";"SERSANE LIFE CORRETORA DE SEGUROS LTDA";;"J";"71988000884";"BA";1;0
"xkgirl1@hotmail.com";"XENIA KELLY FERNANDES PEREIRA";"xenia";"F";"71987573582";"BA";0;0
"elainealbuquerque30@gmail.com";"LINHA AZUL CORRETORA DE SEGUROS LTDA";;"J";"71988651178";"BA";1;0
"tarcisio.sas@hotmail.com";"SAMPAIO SILVA CORRETORA E ADMINISTRADORA DE SEGUROS";;"J";"71991982998";"BA";1;0
"plan-saude@hotmail.com";"LUCIANA CONCEICAO SILVA";"Luciana";"F";"71985104074";"BA";0;0
"visaoc@terra.com.br";"VISAO CORRETORA DE SEGURO LTDA";;"J";"71988098022";"BA";1;0
"cleonice.borges24@hotmail.com";"CLEONICE BORGES SANTOS SOUZA";"Cleonice";"F";"71992567512";"BA";0;0
"vendas@vianordeste.com.br";"LEGAL ADMINISTRADORA E CORRETORA DE SEGUROS";;"J";"71981033930";"BA";1;0
"carmetatty@gmail.com";"CARMEN TATIANE FREITAS DE PINHO";"Tatiane";"F";"71987810360";"BA";0;0
"arlete.adorno@gmail.com";"ARLETE ADORNO COSTA SANTOS";;"F";"71988407152";"BA";0;0
"pataibaintermediacao@uol.com.br";"PATAIBA INTERMEDIACAO DE NEGOCIO LTDA";"Ana";"J";"75991985084";"BA";0;0
"nasgabriel@gmail.com";"PRIMAVISA ADMINISTRADORA  E CORRETORA DE SEGUROS LTDA";"gabriel";"J";"71991336317";"BA";1;0
"saudeuniaocia1@gmail.com";"SAUDE UNIAO CIA - JOSE APARECIDO FERREIRA DA SILVA - EMPRESARIO INDIVIDUAL";;"J";"75981038278";"BA";0;0
"adilsonarouca26@hotmail.com";"ADILSON SANTOS AROUCA";"arouca";"F";"71996042349";"BA";0;0
"geovaniliberdade@hotmail.com";"GEOVANI GONCALVES DE SOUSA";"Geovani";"F";"71999478040";"BA";0;0
"gilsonpereira34@hotmail.com";"IPS PROCESSAMENTO DE DADOS E PESQUISA LTDA";;"J";"71982084230";"BA";0;0
"hbconsorcio@hotmail.com";"HUMBERTO CLEOMENIS BOTELHO";"Humberto";"F";"71991927553";"BA";0;0
"vivaldoc9@gmail.com";"VIVALDO DOS ANJOS CONCEICAO";;"F";"71988427961";"BA";0;0
"juliocmlira@hotmail.com";"JULIO CESAR MOURA LIRA";"Julio";"F";"71991379554";"BA";0;0
"senatorres@hotmail.com";"JOSE CARLOS SENA TORRES";;"F";"71987895455";"BA";0;0
"kariston@karistonseguros.com.br";"KARISTON ADMINISTRADORA E CORRETORA DE SEGUROS LTDA - ME";;"J";"71981548697";"BA";1;0
"antoniopereirafh@hotmail.com";"ANTONIO PEREIRA DE JESUS FILHO";;"F";"71988041711";"BA";0;0
"solidumseguros@gmail.com";"SOLIDUM - RIO BAHIA INTERMEDIACAO E MARKETING LTDA";;"J";"71988758335";"BA";0;0
"jutai.santos@gmail.com";"J C SERVICOS ADMINISTRATIVOS S/C LTDA-ME";"Jutai";"J";"71982164202";"BA";0;0
"vitalseguros@outlook.com";"GUSTAVO PEDREIRA LAPA FILHO";"Gustavo";"F";"71987293443";"BA";0;0
"vss.lane@gmail.com";"VANDERLANE SOUZA SANTOS";;"F";"71988723585";"BA";0;0
"marcello-fontes@hotmail.com";"MARCELLO ROCHA FONTES";"Marcello";"F";"71996072364";"BA";0;0
"nilda2000_araujo@yahoo.com.br";"MARIA NILDA MONTEIRO ARAUJO";"Nilda";"F";"71988784607";"BA";0;0
"seguroscarmen@hotmail.com";"CARMEN VIDAL VIDAL";;"F";"71986016071";"BA";0;0
"promarcas@gmail.com";"PROMARCAS REPRESENTACOES LTDA ME";;"J";"71999635782";"BA";0;0
"roseliasg@gmail.com";"ROMIDT CORRETORA DE SEGUROS LTDA ME";;"J";"71991266262";"BA";1;0
"ualamesconsultor@gmail.com";"AGUIAS CORRETORA DE SEGUROS LTDA";;"J";"71987640801";"BA";1;0
"luciene.ncorretoradeimoveis@gmail.com";"LUCIENE FERREIRA DO NASCIMENTO";;"F";"71991263085";"BA";0;0
"anapaula.rs47@gamil.com";"ANA PAULA RIBEIRO DOS SANTOS SILVA";;"F";"71986310746";"BA";0;0
"anaconsultorasaude@hotmail.com";"ANA SOUZA DOS SANTOS";;"F";"71981901338";"BA";0;0
"mariacristinacamila@yahoo.com.br";"MARIA CRISTINA CAMILA DOS SANTOS";"Cristina";"F";"71999666991";"BA";0;0
"tarcisio.saude-seg@hotmail.com";"TARCISIO JOSE DE JESUS";;"F";"71996029036";"BA";0;0
"vendas@itanetprime.com";"ITATIARA ADMINISTRADORA E CORRETORA DE SEGUROS LTDA";;"J";"71992161080";"BA";1;0
"marivaldo.teles@bol.com.br";"MARIVALDO JORGE TELES";;"F";"71987036390";"BA";0;0
"tarcizio.jesus@gmail.com";"TARCIZIO JESUS DE SANTANA";"tarcizio";"F";"71992259052";"BA";0;0
"agennorcarneiro@hotmail.com";"ODONTO INTERMEDIO E ASSISTENCIA MMEDICA E ODONTOLOGICA - AGENCAR COMERCIO DE PRODUTOS MEDICOS LTDA.";;"J";"73988381174";"BA";0;0
"galdino.regi@gmail.com";"REGINALDO DE BRITO GALDINO LINS";;"F";"71988819394";"BA";0;0
"roseli@soleroseseguros.com.br";"SOL & ROSE CONSULTORIA E CORRETAGEM DE SEGUROS LTDA ME";;"J";"71999896483";"BA";1;0
"santos80matos@hotmail.com";"JODILTON DOS SANTOS MATOS";;"F";"75991440415";"BA";0;0
"jackimperial@hotmail.com";"JACKELINE DOS SANTOS IMPERIAL";;"F";"71988280587";"BA";0;0
"cootrafs@hotmail.com";"VMA FERREIRA PLANOS DE SAUDE - VANIA MARIA ALEANDRINA FERREIRA - EMPRESARIO INDIVIDUAL";;"J";"75991177579";"BA";0;0
"bruna.viasolucoes@hotmail.com";"VIA SOLUCOES FINANCEIRAS - AUTO VIA FINANCIAMENTO LTDA ME";;"J";"71981896873";"BA";0;0
"alessandra.vasconcelos@supercreditobmg.com.br";"SUPERCREDITO - CENTRAL DE CREDITO LTDA";;"J";"71986325181";"BA";0;0
"almeidaprev@ig.com.br";"JAILTON CRUZ DE ALMEIDA";"Jailton";"F";"71988174554";"BA";0;0
"luiscondeseguros@yahoo.com.br";"LUIS CARLOS DE OLIVEIRA CONDE";"Luis";"F";"71999417959";"BA";0;0
"praticoseguros@yahoo.com.br";"PRATICO SEGUROS E REPRESENTAÇÕES LTDA - ME";;"J";"71992067487";"BA";0;0
"valmilu@bol.com.br";"VALDEMIRO SANTOS SOUZA";"valdemiro";"F";;"BA";0;0
"talentoseg@hotmail.com";"TALENTOS PLUS CORRETORA DE SEGUROS LTDA ME";;"J";"71986452494";"BA";1;0
"manoel-amorim@hotmail.com";"MANOEL MOREIRA DE AMORIM RIBEIRO";;"F";"71999848978";"BA";0;0
"joceliarocha@hotmail.com";"JOCELIA SANTOS ROCHA";;"F";"71986146530";"BA";0;0
"eduardo.csas@gmail.com";"EDUARDO CESAR SOUZA DE ARAUJO SILVA";"Eduardo";"F";"71991723959";"BA";0;0
"leide.enfermagem@yahoo.com.br";"LEIDE CLERES SILVA TORRES ALMEIDA";"Leide";"F";;"BA";0;0
"danielle_brazil@hotmail.com";"DANIELLE SANTANA BRASIL";;"F";"71987167073";"BA";0;0
"sergiomota2536@hotmail.com";"SERGIO MAURO LOURENCO DA MOTTA";;"F";"71987638603";"BA";0;0
"marialucineidegomesdesa@yahoo.com.br";"MARIA LUCINEIDE GOMES DE SA";"Lucineide";"F";"71996439004";"BA";0;0
"dhion@ig.com.br";"FERNANDA RIBEIRO QUEIROZ";;"F";"71991059406";"BA";0;0
"wl.seguros@terra.com.br";"WELL LIFE CONSULTORIA ADM E CORRETAGEM DE SEGUROS LTDA";;"J";"71981819450";"BA";1;0
"modelorepresent@hotmail.com";"CONCESSIONARIA MODELO COMERCIO DE PLANOS DE SAUDE LTDA";;"J";"71987034618";"BA";0;0
"comercial1cev@gmail.com";"MARIA CRISTIANA SILVA MAGALHAES";"Cristiana";"F";"71982265993";"BA";0;0
"rsilveira1@oi.com.br";"RENATO SILVEIRA BASTOS";;"F";"71999731852";"BA";0;0
"valdemir@portoservseguros.com.br";"CORRETORA DE SEGUROS M VITORIA EIRELI - ME";;"J";"71981649393";"BA";1;0
"anderson_comercial2011@hotmail.com";"ANDERSON PARANHOS LEITE SANTOS";"anderson";"F";"71991322932";"BA";0;0
"azoane1@gmail.com";"AZOANE RAIMUNDO DOS SANTOS";;"F";"71988769682";"BA";0;0
"anaceliamascarenhas@gmail.com";"ANACELIA DE JESUS SILVA MASCARENHAS";"Anacelia";"F";"71988480086";"BA";0;0
"leandrotdj@hotmail.com";"LEANDRO TEIXEIRA DE JESUS";"Leandro";"F";"71991961979";"BA";0;0
"angelasantosmiranda@gmail.com";"ANGELA SANTOS MIRANDA";;"F";"71999990838";"BA";0;0
"centralbrasileiradenegocios@outlook.com";"WILTON CARVALHO ARAUJO";"wilton";"F";"71987565640";"BA";0;0
"jorge.paolilo@gmail.com";"JORGE CARLOS PAES COELHO PAOLILO";"Jorge";"F";"71996673974";"BA";0;0
"marcuslimaseguros@gmail.com";"MARCUS DE LIMA SALES";"Marcus";"F";"71987574867";"BA";0;0
"nairccb@hotmail.com";"NAIR MOREIRA DOS SANTOS SOUZA";;"F";"71982010310";"BA";0;0
"joice.jgseguros@gmail.com";"BRUNO E BRENDO CORRETORA DE SEGUROS DE VIDA LTDA ME";"JOICE";"J";"71991486563";"BA";0;0
"marise@kangurseguros.com.br";"KANGUR CORRETORA E ADMINISTRADORA DE SEGUROS LTDA";"Marise";"J";"71991612125";"BA";1;0
"corretoraboaventura@hotmail.com";"BOAVENTURA CORRETORA DE SEGUROS LTDA";;"J";"71934845238";"BA";1;0
"gallsoussa@yahoo.com.br";"MARIA DAS GRACAS SOUSA NASCIMENTO";"Gal";"F";"71992940019";"BA";0;0
"regina.psantos@hotmail.com";"REGINA PEREIRA DOS SANTOS - MEI";"regina";"M";"71991374795";"BA";0;0
"jackson_jsv@hotmail.com";"JACKSON DOS SANTOS VERGASTA";"Jackson";"F";"71987677793";"BA";0;0
"saude@carfree.com.br";"CAR FREE ADMINISTRADORA E CORRETORA DE SEGUROS LTDA";;"J";"71932771610";"BA";1;0
"terezinha_olive@hotmail.com";"MARIA TEREZINHA DE OLIVEIRA";"Terezinha";"F";"71991692016";"BA";0;0
"cledinagarcia@yahoo.com.br";"CLEDINA GARCIA DE SOUSA";;"F";"71996626450";"BA";0;0
"josy.jzseguros@hotmail.com";"OLIVEIRA SANTOS CORRETORA DE SEGUROS LTDA";;"J";"71988621332";"BA";1;0
"ricrun42@yahoo.com.br";"RNC CONSULTORIA DE BENEFICIOS INSTITUCIONAIS LTDA";"ricardo";"";"71999990202";"BA";0;0
"borges.almiro@hotmail.com";"ALMIRO RUFINO BORGES";"almiro";"F";"71999959805";"BA";0;0
"bandarraebandarra@hotmail.com";"SEGUROS.COM ADMINISTRADORA E CORRETORA DE SEGUROS LTDA";"vilmar";"F";"71999254581";"BA";1;0
"titaquadros@gmail.com";"JSP CORRETORA DE SEGUROS LTDA";;"J";"71991242346";"BA";1;0
"deboramatheus.nazireu@gmail.com";"DEBORA MERCEZ MATEUS LOPES";"Debora";"F";"71992064109";"BA";0;0
"fagundesvidas@hotmail.com";"FAGUNDES VIDAS ADMINISTRADORA E CORRETORA DE SEGUROS LTDA ME";;"J";"71991366467";"BA";1;0
"mirolopes@hotmail.com";"ALMIRO COUTO PINHEIRO LOPES FILHO";;"F";"71991600326";"BA";0;0
"guimaraesseguros@hotmail.com";"PAULO ROBERTO GUIMARAES CORDEIRO";"paulo";"F";"71991749898";"BA";0;0
"sindralsoares@gmail.com";"SINDRAL SOARES DOS SANTOS";;"F";"71991334673";"BA";0;0
"robertofreitas.compracerta@hotmail.com";"ROBERTO SANTOS FREITAS";;"F";"71992906087";"BA";0;0
"gals.souza@hotmail.com";"FORTMAX REPRESENTACAO DE PLANOS DE SAUDE";;"J";"71988640521";"BA";0;0
"casn@oi.com.br";"CARLOS ANTONIO DA SILVA NASCIMENTO";;"F";"71987157587";"BA";0;0
"aragao.94@bol.com.br";"CARLOS ENOQUE SANTANA ARANGAO";;"F";"71987386065";"BA";0;0
"ca_representacoes@hotmail.com";"CARLOS DO AMPARO COSTA";;"F";"71986383429";"BA";0;0
"leilachaves.seguros@gmail.com";"LEILA MARIA CHAVES DE ANUNCIACAO - MEI";"Leila";"M";"71988791355";"BA";0;0
"bwcorretora@terra.com.br";"BW ASS ADM E CORRETAGEM DE SEGUROS LTDA";;"J";"71993322133";"BA";1;0
"isbelarepresentacoes@hotmail.com";"ISBELA ALENCAR FERREIRA";"Isbela";"F";"71999284566";"BA";0;0
"jssma13@hotmail.com";"JOSUE DOS SANTOS - MEI";"Josue";"M";"71987935455";"BA";0;0
"rose.18.machado@hotmail.com";"ROSAMARY DOS SANTOS MACHADO";"rose";"F";"71988093153";"BA";0;0
"alan-pp@hotmail.com";"GENIUS CRED - ALAN EUGENIO SANTOS SOUZA ME";;"J";"71987772667";"BA";0;0
"tiagoalexandremg@ig.com.br";"TIAGO ALEXANDRE DE SOUZA";;"F";"71981560517";"BA";0;0
"emanueleboasaude@gmail.com";"EMANUELE OLIVEIRA DE ARAUJO";"Emanuele";"F";"71982548311";"BA";0;0
"allan79@r7.com";"ALLAN SILVA DO ESPIRITO SANTO";;"F";"71982842294";"BA";0;0
"gervanboaventura@gmail.com";"GERVAN JORGE BOAVENTURA DA SILVA";"Gervan";"F";"71993795050";"BA";0;0
"natanael_costa2011@hotmail.com";"NATANAEL COSTA DO NASCIMENTO";;"F";"75988763951";"BA";0;0
"dri.nortebahia@hotmail.com";"ADRIANA ALVES DO NASCIMENTO";"adriana";"F";"71993101151";"BA";0;0
"ademarpedreira@yahoo.com.br";"JOSENICE OLIVEIRA SILVA PEDREIRA";;"F";"71987159101";"BA";0;0
"admlucba@gmail.com";"MED QUALY SERVICOS DE APOIO ADMINISTRATIVOS LTDA";"Bacelar";"J";"71985046566";"BA";0;0
"mcs_avila@hotmail.com";"MILTON CARLOS SANTANA AVILA";;"F";"71999673069";"BA";0;0
"mpconsultoriasaude@gmail.com";"MARCELA FONSECA PALMEIRA";"Marcela";"F";"71981457045";"BA";0;0
"heliojunior.meireles@gmail.com";"URYAC ADMINISTRADORA E CORRETORA DE SEGUROS LTDA";;"J";"71991336944";"BA";1;0
"comercial@viafacilsolucoes.com.br";"VIA FACIL SERVICOS LTDA";;"J";"71986474093";"BA";0;0
"robertoalcantara18@hotmail.com";"REINALDO SANTOS PEREIRA";"reinaldo";"F";"71982369787";"BA";0;0
"etnacorretoradeseguros@gmail.com";"ETNA CORRETORA - EVANDRO PEDREIRA BRANDAO";"Evandro";"J";"75991218754";"BA";1;0
"josiconsultora.seguros@gmail.com";"JOSENILDA SACRAMENTO DOS SANTOS";"Josenilda";"F";"71991053768";"BA";0;0
"elainesouza.eas@gmail.com";"ELAINE AMARAL DE SOUZA";"Elaine";"F";"71996349395";"BA";0;0
"vendas@scardoso.com.br";"SOUZA CARDOSO CORRETORA DE SEGUROS LTDA ME";;"J";"75999817733";"BA";1;0
"marcelo_barreto36@hotmail.com";"PLAMOLAB ADMINISTRADORA DE PLANOS DE SAUDE";"Marcelo";"J";"75991944689";"BA";0;0
"munddial@gmail.com";"MUNDDIAL ADM E CORRETORA DE SEGUROS LTDA";"Pedro";"J";"75999815333";"BA";1;0
"nilzete@girseg.com.br";"GIRSEG CORRETORA DE SEGUROS LTDA";;"J";"75991330351";"BA";0;0
"epssaude@hotmail.com";"EDMILSON BISPO DOS SANTOS";;"F";"75991198795";"BA";0;0
"joelsotnas@hotmail.com";"JOEL SOARES SANTOS";;"F";"71988841390";"BA";0;0
"silene_nascimento@hotmail.com";"CARLA SILENE DO NASCIMENTO PEREIRA";"Carla Silene";"F";;"BA";0;0
"corretoraelo@gmail.com";"ELO MASTER CORRETORA DE SEGUROS LTDA";"Luciano";"J";"77999781199";"BA";0;0
"sergiolessa2424@hotmail.com";"SERGIO ABREU LESSA";;"F";"71988857075";"BA";0;0
"andregs976@gmail.com";"ANDRE GARRIDO DE SANTANA";"andre";"F";"71987059872";"BA";0;0
"unicorseguros@unicorseg.com.br";"UNICOR - CIDADE SOL CORRETORA DE SEGUROS LTDA";;"J";"73991479090";"BA";1;0
"portalseg01@hotmail.com";"PORTAL NEWS ADM E CORRETORA SEGUROS";"jairo";"J";"77988073434";"BA";1;0
"epamart@ig.com.br";"EPAMINONDAS MARTINS CAFEZEIRO";;"F";"71981349966";"BA";0;0
"comercial@josuecorretora.com.br";"JOSUE CORRETORA DE SEGUROS LTDA  ME";"Josue";"J";"75991635810";"BA";1;0
"einaudi@vidasan.com.br";"VIDASAN REPRESENTACOES LTDA";;"J";"73999440100";"BA";0;0
"ed-milton@hotmail.com";"NORMED SISTEMA NACIONAL DE SAUDE LTDA";;"J";"75981814355";"BA";0;0
"rico.araujobrito@hotmail.com";"BRITO BORGES ADMINISTRADORA E CORRETORA DE SEGUROS";"RICARDO";"J";"71999284367";"BA";1;0
"adm@hitnerseguros.com.br";"HITNER ADM E CORRETORA DE SEGUROS LTDA";;"J";"71988612800";"BA";1;0
"saude@factualcorretora.com.br";"FACTUAL CORRETORA DE SEGUROS EIRELI - ME";"Jorge";"J";"71999001200";"BA";1;0
"alziradosanjos@hotmail.com";"ALZIRA DOS ANJOS SILVA - MEI";;"M";"71988861838";"BA";0;0
"daianeelen@hotmail.com";"DAIANE ELEM SANTOS DA SILVA";;"F";"71991080072";"BA";0;0
"svsegurosvidaesaude@hotmail.com";"LUIZ GOMES DA SILVA";;"F";"71986000646";"BA";0;0
"hlsseguros@hotmail.com";"HLS CORRETORA DE SEGUROS LTDA";"Wanderley";"J";"61981389590";"BA";0;0
"sos@soseguro.com.br";"SOS ADM E CORRETAGEM DE SEGUROS LTDA";;"J";;"BA";1;0
"segurassiste.corretora@hotmail.com";"SEGURASSISTE CONSULTORIA, ADMINISTRAÇÃO E CORRETAGEM DE SEGUROS LTDA - ME";;"J";"75999770331";"BA";1;0
"atendimento@motrizseguros.com.br";"MOTRIZ ADM E CORR DE SEGUROS LTDA";"Francisco";"J";"71981226562";"BA";1;0
"jorgepinheiro11@hotmail.com";"ANGELA MOURA DE MELO";"angela";"F";"71993490424";"BA";0;0
"silviofreitassaude@hotmail.com";"SILVIO RAIMUNDO BURGOS FREITAS";"silvio";"F";"71991355615";"BA";0;0
"marijanearcanjo22@hotmail.com";"MARIJANE ARCANJO DOS SANTOS";"Marijane";"F";"71986424069";"BA";0;0
"amandaboulhosa@bol.com.br";"AMANDA BOULHOSA SANTOS FERNANDES";;"F";"71982957766";"BA";0;0
"marcos1975@globomail.com";"VALHALLA CORRETORA DE SEGUROS LTDA ME";"marcos";"J";"71996666238";"BA";1;0
"claudiomseguros@gmail.com";"GUANAMBI ADM E CORRETORA DE SEGUROS LTDA";"Claudio";"J";"77988021272";"BA";1;0
"atendimento@britoguimaraes.com.br";"BRITO E GUIMARAES - HERLON MENDES GUIMARAES - EMPRESARIO INDIVIDUAL";"Herlon";"J";"73988245327";"BA";0;0
"mittus.ba@gmail.com";"MITTUS CORRETORA DE SEGUROS";;"J";"77988081943";"BA";1;0
"humbertoseguro@hotmail.com";"ROYALE PLUS CORRETORA DE SEGUROS";;"J";"73999851755";"BA";1;0
"suporte@suportecorretora.com";"WD CONSULTORIA E CORRETORA DE SEGUROS LTDA";;"J";"73988867148";"BA";1;0
"djr.corretora@gmail.com";"DILSON NEVES DO NASCIMENTO JUNIOR";;"F";"71991388588";"BA";1;0
"macedocarvalho@hotmail.com";"MACEDO CARVALHO CORRETORA DE SEGUROS";"Neto";"J";"75999368693";"BA";1;0
"danilopinha.seguros@gmail.com";"DANILO RICARDO OLIVEIRA PINHA";;"F";"71991647004";"BA";0;0
"autorecorretora@hotmail.com";"AUTO & RE ADMINSTRACAO E CORRETAGEM DE SEGUROS LTDA";"edvaldo";"J";"71988515076";"BA";1;0
"marcosrjesus@yahoo.com.br";"TORRES & SILVA LTDA - EPP";;"J";"71988649336";"BA";0;0
"debora.soledade1@gmail.com";"SOLIVIDA CORRETORA SEGUROS DE VIDA LTDA";"Debora";"J";"71988430604";"BA";0;0
"pataibafinanceirointer@hotmail.com";"COSTA FORTE CORRETORA DE SEGUROS LTDA";;"J";"75982029879";"BA";1;0
"romeliad2@yahoo.com.br";"RR LIFE PROMOCAO LTDA";"Romelia";"J";"71993652045";"BA";0;0
"savanacorretora@uol.com.br";"SAVANA CORRETORA DE SEGUROS LTDA";;"J";"77991155289";"BA";1;0
"isisoares@gmail.com";"MARLIFE CORRETORA DE SEGUROS DE VIDA LTDA";"Marise";"J";"73988370053";"BA";1;0
"psanascimento@gmail.com";"PAULO SERGIO ALVES NASCIMENTO";"paulo";"F";"73991191360";"BA";0;0
"mastercorretorafeira@hotmail.com";"MASTER CORRETORA - SEVERAL CARD ADM DE CARTAO DE DESCONTO LTDA";;"J";"75992556123";"BA";0;0
"thaisintra@hotmail.com";"C R C OLIVEIRA - ME - EMPRESA INDIVIDUAL";;"J";"73991006759";"BA";0;0
"vida.previdencia@anfins.com.br";"ANFIS - ANJO FIEL CORRETORA DE SEGUROS";"telma";"J";"77991171260";"BA";1;0
"nilmylle_seguros@hotmail.com";"NILMYLLE CORRETORA DE SEGUROS LTDA";;"J";"71999471660";"BA";1;0
"fred_acioly@hotmail.com";"ACIOLY CORRETORA SEGUROS DE VIDA LTDA";"frederico";"J";"74999945331";"BA";0;0
"tiese.dias@hotmail.com";"VIDA MAIS SAUDE - ROQUE LUIS DOS SANTOS SOUZA - EMPRESA INDIVIDUAL";"Tiese";"J";"75988369736";"BA";0;0
"costaandrade.corretora@hotmail.com";"PAIXAO COSTA ANDRADE CORRETORA DE SEGUROS LTDA";;"J";"71992464268";"BA";1;0
"evandrovalasques@gmail.com";"EVANDRO SANTOS VALASQUES";;"F";"73988754966";"BA";0;0
"luis_carvalho2007@hotmail.com";"ANDRE LUIS SANTOS CARVALHO";"andre";"F";"71986660817";"BA";0;0
"seguros@grupodvcarvalho.com.br";"DV CARVALHO SERVICOS LTDA-ME";;"J";"71993694025";"BA";0;0
"sobral_kibe@hotmail.com";"ROGERIO NASCIMENTO SOBRAL";"Rogerio";"F";"74988056485";"BA";0;0
"prefirasaude@hotmail.com";"PREFIRA SAUDE CORRETORA DE SEGUROS";"ronezio";"J";"75981544449";"BA";1;0
"jandaconsultora@hotmail.com";"JANDIRA BARBOZA DE SOUZA";"Jandira";"F";"71987615303";"BA";0;0
"conceicaoao-santana@bol.com.br";"MARIA DA CONCEICAO COSTA SANTANA";"Conceicao";"F";"71987886887";"BA";0;0
"michelinhabraga@hotmail.com";"MICHELE DA COSTA BRAGA";"Michele";"F";"71999442735";"BA";0;0
"contato.allanledo@gmail.com";"ALLAN LEDO CORREIRA DE ALMEIDA";"allan";"F";"71992956511";"BA";0;0
"mari.reisvca@gmail.com";"MARILU REIS";"Marilu";"F";"77992011665";"BA";0;0
"elinalva.araujo@hotmail.com";"ELINALVA DE ARAUJO SENA CARDOSO";"Elinalva";"F";"71986064562";"BA";0;0
"a3xcorretora@hotmail.com";"A3X CORRETORA DE SEGUROS LTA-ME";"ALESSANDRO";"J";"71986861010";"BA";1;0
"bestmodels@terra.com.br";"ZANONI SAMPAIO FERRARI";"Zanoni";"F";"71987717186";"BA";0;0
"jhqp-2011@hotmail.com";"JOSE ANTONIO QUEIROZ PINHO";"Jose";"F";"71986534036";"BA";0;0
"lazaro_maia@live.com";"LAZARO CESAR MAIA MAGALHAES";"Lazaro";"F";"75981342353";"BA";0;0
"naldo@previnesegurospe.com.br";"PREVINE ADMINISTRACOES LTDA";"Naldo";"J";"87988190823";"PE";0;0
"enario10@hotmail.com";"ERONILDES SOUZA NAZARIO";;"F";"71993554688";"BA";0;0
"preferencialtur@bol.com.br";"SANDRA MARIA DOS SANTOS DE SALVADOR - ME";"Sandra";"M";"71987838196";"BA";0;0
"emmseguros@edsonmagalhaes.com.br";"RRL MAX ADMINISTRACAO E CORRETORA DE SEGUROS LTDA";;"J";"71999375660";"BA";1;0
"carloscms2015@gmail.com";"CARLOS ALBERTO MOREIRA DOS SANTOS";"CARLOS";"F";"71988657791";"BA";0;0
"fernandaseguros@blcorretora.com.br";"BLUE LIFE CORRETORA DE SEGUROS LTDA";;"J";"71991900126";"BA";1;0
"alinehcn@hotmail.com";"ALINE NATIVIVDADE DO ROSARIO";"aline";"F";"71981339422";"BA";0;0
"daniela.pereira@yahoo.com.br";"DANIELA PEREIRA DOS SANTOS";"Daniela";"F";"71988687926";"BA";0;0
"zero6.81@hotmail.com";"ANTONIO IZIDRO DE LIMA FILHO";;"F";"71983432518";"BA";0;0
"elisvbaaguia@hotmail.com";"ELISANGELA VILAS BOAS ALVES LIMA";"Elisangela";"F";"71986031674";"BA";0;0
"caiomatos_26@hotmail.com";"CARLA GRAZIELA CARVALHO MATOS";;"F";"75999594365";"BA";0;0
"msantossegurosaude@hotmail.com";"MARIO SERGIO SANTOS VASCONCELOS";;"F";"71991150685";"BA";0;0
"marco.freitas@lagosseguros.com.br";"MARCO ANTONIO ROCHA DE FREITAS";"Marco";"F";"71981188884";"BA";0;0
"km.comercial@gmail.com";"RICARDO SILVEIRA MENDONCA";"ricardo";"F";"71982213380";"BA";0;0
"marcoslsn@hotmail.com";"MARCOS LEANDRO DA SILVA NASCIMENTO";;"F";"71991370819";"BA";0;0
"dalmo_paz@hotmail.com";"DALMO LUIZ FERREIRA DOS SANTOS";;"F";"71999820924";"BA";0;0
"veraviera50@bol.com.br";"VERANILDES SILVA VIEIRA";"vera";"F";"71996981371";"BA";0;0
"isapalma@maryseg.com.br";"MARYSEG ADMINISTRADORA E CORRETORA DE SEGUROS";;"J";"71987285437";"BA";1;0
"ariomario@hotmail.com";"ARIOMARIO MOREIRA PINHO FILHO";;"F";"71984011180";"BA";0;0
"comercial.onix@yahoo.com.br";"ONIX EXCELENCE ADM E CORRETORA DE SEGUROS LTDA";;"J";"77999316564";"BA";1;0
"dailsonmartin75@gmail.com";"DAILSON DE JESUS MARTINS";"Dailson";"F";"71999126508";"BA";0;0
"11fernandes2008@gmail.com";"JOAO JOSE DOS SANTOS FERNANDES";;"F";"71987937741";"BA";0;0
"chlauferreira@hotmail.com";"CLAUDIA FERREIRA DOS SANTOS";"Claudia";"F";"71993897323";"BA";0;0
"gleyssematos@hotmail.com";"GLEYSSE MADUREIRA MATOS";"Gleysse";"F";"71988361213";"BA";0;0
"kleber@klopescorretora.com.br";"KLOPES CORRETORA E ADMINISTRADORA DE SEGUROS";;"J";"71987138990";"BA";1;0
"dejenasc@hotmail.com";"DEJENANE NASCIMENTO DA CRUZ DE JESUS";;"F";"71982220671";"BA";0;0
"gislanerealiza@hotmail.com";"ARAUJO ATAIDE ADMINISTRADORA E CORRETORA DE SEGUROS LTDA";;"J";"77999746210";"BA";1;0
"ferrrarovaz@gmail.com";"JOSE ANTONIO RIBEIRO FERRARO VAZ";"Jose";"F";"71982218152";"BA";0;0
"renatossilva@gmail.com";"RENATO SANTOS DA SILVA";;"F";"71981538102";"BA";0;0
"aparebatistyy@hotmail.com";"MARIA APARECIDA DA SILVA BATISTA";;"F";"71991574582";"BA";0;0
"elygueudeville@hotmail.com";"ELYSANGELA MARTINS GUEUDEVILLE";;"F";"71999854260";"BA";0;0
"annamineiro@outlook.com";"ANA MARIA DA SILVA MINEIRO";"ana";"F";"71986616624";"BA";0;0
"accorretorvendas@gmail.com";"AUGUSTO CESAR BOA MORTE";;"F";"71986297684";"BA";0;0
"ritta68@outlook.com";"RITA DE CASSIA DE ASSIS SANTOS - MEI";;"M";"71986233395";"BA";0;0
"renivaldoteixeira@bol.com.br";"RENIVALDO TEIXEIRA DE ALMEIDA";;"F";"71999556548";"BA";0;0
"verdade.ssa.ba@gmail.com";"MICHELE FERREIRA DE SOUZA";"Michele";"F";"71992453532";"BA";0;0
"lilianviegas.imoveis@gmail.com";"LILIAN VIEGAS CARDOSO";"Lilian";"F";"71999492925";"BA";0;0
"oselpereira@hotmail.com";"MILLENIUM ADM CORRETORA DE PLANOS DE SAUDE";;"J";"75981168911";"BA";1;0
"dia.2014@outlook.com";"ADELAIDE BRITO DE JESUS";;"F";"71987559422";"BA";0;0
"rspconsultoria.2014@gmail.com";"ROBSON SOUZA DA PAIXAO - MEI";"robson";"M";"71985115527";"BA";0;0
"antoniocesar76@hotmail.com";"AC CORRETORA ADMINISTRADORA E CORRETORA DE SEGUROS LTDA";"cesar";"J";"71982336906";"BA";0;0
"solange.oliveiramorena@live.com.br";"SOLANGE DOS SANTOS OLIVEIRA";;"F";"71996588448";"BA";0;0
"angelaseguros@bol.com.br";"ANGELA CRISTINA MACHADO DIAS";;"F";"71984490007";"BA";0;0
"jspinola@veloxmail.com.br";"ICB SPINOLA ADMINISTRADORA E CORRETORA DE SEGUROS LTDA - ME";;"J";"77981458133";"BA";1;0
"piroporeni@globomil.com";"RENI DE OLIVEIRA PIROPO";;"F";"71999955346";"BA";0;0
"edilenamenezes@gmail.com";"EDILENA RIBEIRO DA SILVA MENEZES";;"F";"71988447335";"BA";0;0
"claudio@primerseguros.com.br";"PRIMER NEIDE JANI CORRETORA DE SEGUROS";"neide";"J";"77999711205";"BA";1;0
"natygomes21@hotmail.com";"RENATA DE SANTANA GOMES";;"F";"71987167027";"BA";0;0
"cleide_seguros@hotmail.com";"GENESIS CORRETORA DE SEGUROS EIRELI";;"J";"71992153940";"BA";1;0
"manu.saude@outlook.com";"MANUEL ANDRADE DOS PRAZERES";;"F";"71987265433";"BA";0;0
"comercial@eccherseguros.com.br";"ECCHER CORRETORA E ADMISTRADORA DE SEGUROS LTDA";"Junior";"J";"73999857744";"BA";1;0
"leandroprates@viconseg.com.br";"VICONSEG - VITORIA DA CONQUISTA ADM E CORRETORA DE SEGUROS";"leandro";"J";"77988020390";"BA";1;0
"joselitosimoes@hotmail.com";"JOSELITO ROSA SIMOES FILHO";;"F";"71992035044";"BA";0;0
"norma.sucesso@hotmail.com";"NORMA SUELI DA CRUZ PEREIRA";"norma";"F";"71987892335";"BA";0;0
"renato_udovic@hotmail.com";"RENATO MOTTA UDOVIC";;"F";"71992855563";"BA";0;0
"contatos@blockseguros.com.br";"BLOCK ADM E CORRETAGEM DE SEGUROS";;"J";"75982181242";"BA";1;0
"soniaceioliveira@gmail.com";"SONIA CONCEICAO DE OLIVEIRA";;"F";"71987146784";"BA";0;0
"walterbarboza_consultor@yahoo.com.br";"WALTER BARBOZA DE AZEVEDO";;"F";"73988677075";"BA";0;0
"coteseguros@coase.com.br";"COASE CORRETORA DE SEGUROS LTDA";"Maron";"J";"71931781155";"BA";1;0
"magalioliveira11@hotmail.com";"MARIA LUZIA PEREIRA DE OLIVEIRA - MEI";;"M";"75982401522";"BA";0;0
"rioondas@uol.com.br";"RIO ONDAS ADM E CORRETORA DE SEGUROS LTDA";"Marcelo";"J";"77991157656";"BA";1;0
"franciscleide.ferreira@bol.com.br";"FRANCIS CLEIDE DOS SANTOS FERREIRA";;"F";"71988074150";"BA";0;0
"naco.santos@bol.com.br";"RAIMILTON DOS SANTOS - MEI";;"M";"71986632588";"BA";0;0
"provendas-se@hotmail.com";"PROVENDAS SOLUCOES EM VENDAS E NEGOCIOS LTDA";;"J";"79991455686";"SE";0;0
"ericlordelo@hotmail.com";"ERIC BATISTA LORDELO - MEI";;"M";"71992278592";"BA";0;0
"reinaldogoes@me.com";"ALL CORRETORA DE SEGUROS LTDA";;"J";"71992819802";"BA";1;0
"petrolinacorretora@yahoo.com.br";"PETROLINA - CORRETORA PETROLINA LTDA - ME";"Alexandre";"J";"87988236001";"PE";0;0
"danielconsultorchevrolet@gmail.com";"DANIEL NASCIMENTO DA SILVA";;"F";"71987898523";"BA";0;0
"silvanamota2006@hotmail.com";"SILVANA MOTA OLIVEIRA";"silvana";"F";"71986468701";"BA";0;0
"rissanga@gmail.com";"MARIA JANE RODRIGUES MAY";;"F";"71988788154";"BA";0;0
"alessandroacsilva@gmail.com";"ALESSANDRO AUGUSTO CORREIA DA SILVA";;"F";"71982703113";"BA";0;0
"aloysioleal@gmail.com";"JOSE ALOYSIO BARBOSA LEAL";"Aloysio";"F";"71987539916";"BA";0;0
"antonysseguros@hotmail.com";"ANTONIO DOS SANTOS MARTINS";;"F";"71991992219";"BA";0;0
"w.portugal.x@gmail.com";"WASHINGTON LUIZ XAVIER PORTUGAL";;"F";"77999264116";"BA";0;0
"sandovallopes@globo.com";"SANDOVAL LOPES DA SILVA";;"F";"71999115144";"BA";0;0
"mxavier.seguros@gmail.com";"ALIANCA REAL SERVICOS E COMERCIO LTDA";;"J";"71988053289";"BA";0;0
"carloscesarandrade@gmail.com";"PROSEGURO CORRETORA DE SEGUROS LTDA - ME";;"J";"71996631423";"BA";1;0
"karoline.andrade@yahoo.com.br";"CAROLINE LOPES DE ANDRADE";;"F";"71991483405";"BA";0;0
"bahiacarioca@hotmail.com";"PATRICIA MARQUES DE SOUSA";;"F";"71986002661";"BA";0;0
"protecao.seguros@yahoo.com.br";"ALINE SOUZA COSTA";;"F";"75981489053";"BA";0;0
"edmilsonlmf@gmail.com";"XR CORRETORA DE SEGUROS LTDA";"edmilson";"J";"71981790024";"BA";1;0
"cafe_402@hotmail.com";"MARIA DE LOURDES MOREIRA NASCIMENTO";;"F";"77981661154";"BA";0;0
"contato@hcseguro.com.br";"HC CORRETORA E ADMINISTRADORA DE SEGUROS LTDA";;"J";"71999145804";"BA";1;0
"ritavicente.consultora@gmail.com";"RITA DE LIMA ALMEIDA BRITO";;"F";"71987969677";"BA";0;0
"ulisses@ucsseguros.com.br";"UCS CORRETORA DE SEGUROS LTDA";;"J";"71991603808";"BA";1;0
"tecnica@ggsseg.com.br";"QUEIROZ CARVALHO ADMINISTRAÇÃO E CORRETAGEM DE SEGUROS LTDA";;"J";"75981869050";"BA";1;0
"charleswindson@hotmail.com";"CWS CONSTRUCOES E SERVICOS LTDA - ME";;"J";"75983167999";"BA";0;0
"ana.conceicao16.acc@gmail.com";"ANA CAROLINA CONCEICAO";"ana";"F";"71986201094";"BA";0;0
"airis.costa@rvconsignados.com.br";"AIRIS CLAUDIA BRITO COSTA";"airis";"F";"71993297632";"BA";0;0
"barbaramiranda@plenasolucoesfinanceiras.com";"RESOLVE CORRETORA DE SEGUROS E ASSESSORIA ESPECIALIZAÇÃO LTDA";;"J";"71988962638";"BA";0;0
"comercial@4lifeseguros.com.br";"4LIFE CORRETORA DE SEGUROS LTDA";;"J";;"BA";1;0
"ailton.silvaesilva@hotmail.com";"AILTON SILVA";;"F";"71991277672";"BA";0;0
"eduardo@gamboaseguros.com.br";"GAMBOA CORRETORA DE SEGUROS LTDA";;"J";"71986224953";"BA";1;0
"lijeoli@gmail.com";"LILIAN DE JESUS OLIVEIRA";;"F";"71999157782";"BA";0;0
"losgutbov@gmail.com";"AUGUSTO LIMA DOS SANTOS";;"F";"71987115132";"BA";0;0
"marcosnery86@yahoo.com";"MARCOS NERY DOS SANTOS";;"F";"71987615835";"BA";0;0
"raizoliveira@outlook.com";"JEFERSON SANTOS OLIVEIRA";;"F";"71996029591";"BA";0;0
"carvalhoseguros2012@hotmail.com";"ALBERTO VASQUES DE CARVALHO - MEI";"alberto";"M";"75983084830";"BA";0;0
"ise-oliver@hotmail.com";"ISE SANTOS OLIVEIRA";;"F";"71987831699";"BA";0;0
"crisimoveis.10@gmail.com";"CRISTINA DA SILVA PAIXAO";;"F";"71988442036";"BA";0;0
"qst_albenia@hotmail.com";"ALBENIA ARAUJO DE SANTANA";;"F";"71992032353";"BA";0;0
"priscila1980@hotmail.com";"PRISCILA SANTANA BEZERRA";;"F";"71987408246";"BA";0;0
"cosme.ambiente@hotmail.com";"AMBIENTE INTERMEDIACOES E SERVICOS LTDA";;"J";"71988851132";"BA";0;0
"elianeferreira.pereira@gmail.com";"ELIANE PEREIRA FERREIRA";;"F";"71992357537";"BA";0;0
"fabio_aconceicao@yahoo.com.br";"FABIO ALMEIDA CONCEICAO";"Fabio";"F";"71988886764";"BA";0;0
"fernandacaroline84@yahoo.com";"FERNANDA CAROLINE SA DE AGUIAR";;"F";"71988431400";"BA";0;0
"eduardo.freitas303@hotmail.com";"EDUARDO FREITAS FREIRE JUNIOR";;"F";"71992306783";"BA";0;0
"espacofinanceiro10@gmail.com";"NAIVAN HONORIO DOS SANTOS ME";;"J";"75998098283";"BA";0;0
"janajulia12@hotmail.com";"KARLA JANAINA SOBREIRA DE CARVALHO";"Janaina";"F";"87988586737";"PE";0;0
"comercial@zelobrasil.com.br";"ZELO BRASIL CORRETORA E ADMINISTRADORA DE SEGUROS LTDA -ME";;"J";"71981687494";"BA";1;0
"marcio.goes@viapersonnalite.com.br";"VIA PERSONNALITE CORRETORA DE SEGUROS LTDA";"marcio";"J";"71999231575";"BA";1;0
"aline.miranda1977@yahoo.com";"ALINE DOS SANTOS MIRANDA";"aline";"F";"71987131883";"BA";0;0
"ishaloncarneiro@gmail.com";"IRIS SHALON FARIAS CARNEIRO";;"F";"71992769500";"BA";0;0
"maria.rigaud@hotmail.com";"MARIA JOSE MORAES RIGAUD";;"F";;"BA";0;0
"zhaupinheiro@hotmail.com";"ISAURITA PINHEIRO DOS SANTOS SACRAMENTO - MEI";;"M";"71992437049";"BA";0;0
"robertotelesjr@gmail.com";"ROBERTO RIBEIRO TELES JUNIOR";;"F";"71992072057";"BA";0;0
"crisconsorcio-31@yahoo.com.br";"M C R COMERCIO E REPRESENTACOES LTDA - ME";;"J";"71992467951";"BA";0;0
"araujo.imp9@gmail.com";"VINICIUS OLIVEIRA DE ARAUJO";;"F";"71991949997";"BA";0;0
"glaucio2205@gmail.com";"FORTE CORRETORA DE SEGUROS DE SEGUROS LTDA ME";;"J";"71983697000";"BA";1;0
"tamilecarqueija@hotmail.com";"JOANA TAMILE CARQUEIJA SANTIAGO";;"F";"71991813535";"BA";0;0
"mario.alvesmario@outlook.com";"ELIOMARIO DO ESPIRITO SANTO ALVES";;"F";"71988545828";"BA";0;0
"atendimento@amtseguros.com";"AMT CORRETORA E ADMINISTRADORA DE SEGUROS LTDA";;"J";"71992680119";"BA";1;0
"orlandoandre2009@hotmail.com";"ORLANDO ANDRE SANTOS";;"F";"71987377894";"BA";0;0
"fiqueseguro.lio@gmail.com";"LILIANE NOGUEIRA DE OLIVEIRA DANTAS";;"F";"71988917112";"BA";0;0
"luzaniasouza_seguros@hotmail.com";"LUZANIA FERREIRA SOUZA";;"F";"71993339390";"BA";0;0
"mattos.serrano@hotmail.com";"JOSE MARCOS MATTOS SERRANO";;"F";"71992450349";"BA";0;0
"lmconsultssa@gmail.com";"LM CONSULT ASSESSORIA E INFORMACOES CADASTRAIS LTDA";;"J";"71992676110";"BA";0;0
"gilceliasilva0@gmail.com";"GILCELIA SILVA DIAS";;"F";"71986017232";"BA";0;0
"comercial@brachmansseguros.com.br";"BRACHMANS CORRETORA DE SEGUROS LTDA";"MAURO";"J";"71996665051";"BA";1;0
"fabio@corretorafg.com.br";"F V DOS SANTOS - ME";"Fabio";"J";"71992516262";"BA";0;0
"comercial@apolizza.com";"APOLIZZA CORRETORA DE SEGUROS LTDA";;"J";"71991782300";"BA";1;0
"klingerjunior@cscorretorasaude.com.br";"KLINGER JOSE DA SILVA JUNIOR";"Klinger";"F";"73999793701";"BA";0;0
"fabiana-oliivsan@hotmail.com";"FABIANA OLIVEIRA SANTOS";;"F";"71988067401";"BA";0;0
"acorretora@ig.com.br";"ALCADA CORRETORA DE SEGUROS LTDA";;"J";"71991338229";"BA";1;0
"nau.gomes@hotmail.com";"RONALDO GOMES DOS SANTOS";;"F";"71988343724";"BA";0;0
"scorpyusseguros@hotmail.com";"SCORPYOS SEG ADMINISTRDORA DE SEGUROS LTDA";;"J";"74999661497";"BA";1;0
"geraldo@infinityconsorcio.com.br";"INFINITY CORRETORA - C BRUNO SILVA DE OLIVEIRA REPRESENTACOES-ME";;"J";"75983527703";"BA";0;0
"claudioipu@hotmail.com";"CLAUDIO ALEX SILVA SANTOS";;"F";"71988728587";"BA";0;0
"cesarpaixao9000@bol.com.br";"JULIO CESAR RODRIGUES D PAIXAO";"Julio";"F";"71986194191";"BA";0;0
"kikamarcilene@gmail.com";"MARCILENE PEREIRA DE AZEVEDO";;"F";"71991267461";"BA";0;0
"ivana_araujot@hotmail.com";"IVANA SUZE ARAUJO CASTRO TEIXEIRA";;"F";"71999297172";"BA";0;0
"delsonsouza.consorcio@hotmail.com";"DELSON FLORISVALDO DE SOUZA";;"F";"71987629728";"BA";0;0
"silviosantos.consorcios@hotmail.com";"SILVIO DE OLIVEIRA SANTOS";;"F";"71987919183";"BA";0;0
"riltonsantana@hotmail.com";"RILTON SANTOS DE SANTANA - MEI";;"M";"71986121191";"BA";0;0
"valneia@hotmail.com";"VALNELIA BARRETO OLIVEIRA";;"F";"71981567450";"BA";0;0
"edineivieira@gmail.com";"NEI VIEIRA CORRETORA DE SEGUROS LTDA";;"J";"71999888368";"BA";1;0
"segurosevida@gmail.com";"VALDIR RODRIGUES DOS SANTOS";;"F";"71993499635";"BA";0;0
"milaart@hotmail.com";"CAMILA DE ALMEIDA SILVA";;"F";"71987852523";"BA";0;0
"sostenes.barbosa@hotmail.com";"SOSTENES DOS SANTOS LIMA BARBOSA";;"F";"71991730883";"BA";0;0
"paulo@conceitoseguros.com.br";"CONCEITO CORRETORA DE SEGUROS LTDA";"Paulo";"J";"71997154522";"PE";0;0
"tai.carige@hotmail.com";"TAIANE FREIRE CARIGE";"Taiane";"F";"74991433046";"BA";0;0
"adinelia1@hotmail.com";"MS SEG CORRETORA DE SEGUROS LTDA";;"J";"71988120049";"BA";1;0
"tec.mayara@outlook.com";"MAIARA SILVA DE OLIVEIRA";"Maiara";"F";"71985082123";"BA";0;0
"dejair@romanosseguros.com.br";"DEJAIR ROMANO";"Dejair";"F";"75999351863";"BA";1;0
"alvaroleda1@gmail.com";"ALVARO LEAO MONTEIRO LEDA";"alvaro";"F";"71999691740";"BA";0;0
"elainecsousa@hotmail.com";"ELAINE CRISTINA SOUSA GONCALVES";"Elaine";"F";"71988556496";"BA";0;0
"reiassum@hotmail.com";"ANTONIO REINALDO ASSUNCAO LIMA";"reinaldo";"F";"71986476496";"BA";0;0
"paixao.joseane@yahoo.com.br";"JOSEANE PAIXAO GOES";;"F";"71993574204";"BA";0;0
"diretoria@grupopeixotocorretora.com.br";"GRUPO PEIXOTO CORRETORA DE SEGUROS LTDA ME";"Taise";"J";"73988556595";"BA";1;0
"calazansfortuna@gmail.com";"MARILUCIA CALAZANS DE LIMA";"Marilucia";"F";"71992004161";"BA";0;0
"vip-flex@hotmail.com";"VIP FLEX CORRETORA DE SEGUROS LTDA";;"J";"77999559950";"BA";1;0
"pedrogomesneto@hotmail.com.br";"PEDRO GOMES DOS SANTOS NETO";;"F";"71986096513";"BA";0;0
"sandro-serra@gmail.com";"SANDRO SILVA SERRA DOS SANTOS";;"F";"71999177931";"BA";0;0
"bettyamorim22@bol.com.br";"ELISABETE AMORIM SACRAMENTO - MEI";;"M";"71993128932";"BA";0;0
"costarepresentant@hotmail.com";"JOAO DE JESUS COSTA - FIRMA INDIVIDUAL";;"J";"71988986510";"BA";0;0
"lorena.work@hotmail.com";"LORENA CARVALHO BARBOSA";"Lorena";"F";"71988452020";"BA";0;0
"casaes@peoplebeneficios.com.br";"PEOPLE CARE CORRETORA DE SEGUROS LTDA";;"J";"71988001507";"BA";1;0
"lbcasaes@gmail.com";"LENNON BORBA CASAES";"Lennon";"F";"71987750009";"BA";0;0
"jrcorretora-31@hotmail.com";"JOSENILDA RIBEIRO DA CRUZ";"Josenilda";"F";"71985058672";"BA";0;0
"msbrasilemprestimo@gmail.com";"MARCELLA SILVA SANTOS";"Marcella";"F";"71988469038";"BA";0;0
"lidyllerezende@gmail.com";"LIDIANE SOUSA REZENDE DA SILVA";;"F";"71991105765";"BA";0;0
"sulabarreto87@hotmail.com";"SULAMITA DA SILVA BARRETO";;"F";"71991542848";"BA";0;0
"cadatro@parceirocorretora.com.br";"PARCEIRO CORRETORA DE SEGUROS LTDA";;"J";"71981492949";"BA";1;0
"josenildes13@yahoo.com.br";"JOSENILDES JOSE DA SILVA";"Josenildes";"F";"71988621431";"BA";0;0
"mildomar@hotmail.com";"UNIDADE CORRETORA DE SEGUROS LTDA - EPP";;"J";"75982166600";"BA";1;0
"dineybradao2008@hotmail.com";"QUEIROZ E BRANDAO COMERCIO DE VEICULOS PECAS E SERVICOS";;"J";"75999995884";"BA";0;0
"patricia@platalseguros.com.br";"PLATAL CONSULTORIA ADMINISTRACAO E CORRETAGEM DE SEGUROS";"patricia";"J";"71981821977";"BA";1;0
"raphacorretoraconsorcios@gmail.com";"MARIA CRISTINA FARIAS GOMES - MEI";"Cristina";"M";"71992467951";"BA";0;0
"marquetone@gmail.com";"MARCOS DE OLIVEIRA MARQUETONE";;"F";"75982471135";"BA";0;0
"ismaelaraujo2014@bol.com.br";"ISMAEL ARAUJO DA SILVA ME - EMPRESARIO INDIVIDUAL";;"J";"71988475245";"BA";0;0
"reinaldo230711@gmail.com";"REINALDO CARNEIRO DA SILVA";;"F";"75999171411";"BA";0;0
"dene.com@hotmail.com";"EDENILDES ALVES NASCIMENTO";;"F";"71987051438";"BA";0;0
"emanuellenani@hotmail.com";"EMANUELE BISPO DO NASCIMENTO SANTOS";;"F";"71987641536";"BA";0;0
"gilmaratoledo@hotmail.com";"GILMARA TOLEDO GARCIA DE ALMEIDA";;"F";"71986528959";"BA";0;0
"gutocastro2008@hotmail.com";"AUGUSTO CESAR PARANHOS DE CASTRO";;"F";"75981300139";"BA";0;0
"natleli27@hotmail.com";"NATALIA LEFUNDES LIMA";;"F";"71988599972";"BA";0;0
"matos.daiane@gmail.com";"DAIANE DE MATOS DE JESUS";;"F";"71992244343";"BA";0;0
"nalva.bastos@bol.com.br";"DINALVA CONCEICAO BASTOS";;"F";"71981257889";"BA";0;0
"ligseg@hotmail.com";"LIGSEG CORRETORA DE SEGUROS LTDA ME";"Vitor";"J";"71996724222";"BA";1;0
"marcos.valuci@hotmail.com";"VALUCI CORRETORA DE SEGUROS";"marcos";"J";"75991360135";"BA";1;0
"diego.brito88@yahoo.com.br";"DIEGO ADSON GOMES DE BRITO";;"F";"71986331863";"BA";0;0
"katiaandryws@yahoo.com.br";"KATIA ANDRADE FERREIRA";;"F";"71991617886";"BA";0;0
"js.morais@yahoo.com.br";"JOSEFA MORAIS SOUZA";;"F";"75999017037";"BA";0;0
"jas.corretora@hotmail.com";"JAS PROMOCOES E VENDAS DE PLANOS DE SAUDE LTDA - ME";;"J";"71999662735";"BA";0;0
"autocorretora@uol.com.br";"AUTO CORRETORA DE SEGUROS LTDA";;"J";;"BA";1;0
"glesiacabral@hotmail.com";"GLESIA CABRAL DOS SANTOS";"Glesia";"F";"71985373840";"BA";0;0
"marassilva@ig.com.br";"MARIA DA CONCEICAO MERCES SILVA";;"F";"71991429078";"BA";0;0
"raelvelozo50@gmail.com";"ISRAEL VELOSO GOMES";"Israel";"F";"71985188263";"BA";0;0
"izabelab92@hotmail.com";"IZABELA MARIA BEZERRA DOS SANTOS";"Izabela";"F";"71993165186";"BA";0;0
"consultoredito@gmail.com";"RAPHAEL VELOSO DE OLIVEIRA SANTOS";;"F";"71994061723";"BA";0;0
"atendimento@facchiseg.com.br";"FACCHISEG ADMINISTRADORA E CORRETORA DE SEGUROS LTDA - EPP";;"J";;"BA";1;0
"wsb@terra.com.br";"WSB CORRETORA DE SEGUROS LTDA";;"J";;"BA";0;0
"pricila.tamara@yahoo.com.br";"PRISCILA PATRICIA SANTOS DE JESUS";;"F";"71988532188";"BA";0;0
"ramon.r2@hotmail.com";"RAMON DOS ANJOS";;"F";"71992540692";"BA";0;0
"patriciaferreira1323@gmail.com";"PATRICIA SOUSA FERREIRA";;"F";"71993402036";"BA";0;0
"eduduardoborges@hotmail.com";"LUIS EDUARDO SANTOS BORGES";;"F";"71999761318";"BA";0;0
"edneidesilva.ssa@hotmail.com";"EDNEIDE SILVA REIS";;"F";"71982100468";"BA";0;0
"ana008733@gmail.com";"ANA LUCIA FERREIRA DOS SANTOS";;"F";"71987388752";"BA";0;0
"lene.limajs@hotmail.com";"MILENE LIMA DE OLIVEIRA";;"F";"71987413592";"BA";0;0
"estreladomarconrado@gmail.com";"MARISTELA SANTOS CONRADO";"Maristela";"F";"71983296397";"BA";0;0
"cidcardoso7@hotmail.com";"CID CARDOSO DE OLIVEIRA";;"F";"71999992579";"BA";0;0
"	j.helen@ig.com.br";"GERUSA PEREIRA ALVES - MEI";;"M";"75991343029";"BA";0;0
"luciannojrsoares@gmail.com";"LUCIANO DE SANTANA SOARES JUNIOR";;"F";"71991417907";"BA";0;0
"monica.feitosal@gmail.com";"MARIA MONICA FEITOSA LISBOA";;"F";"71999826370";"BA";0;0
"paulaplenasaude@gmail.com";"PLENA SAUDE - MARIA DAS GRACAS MASCARENHAS GOMES CORRETORA DE DEGUROS ME";"graça";"J";"75988082119";"BA";0;0
"igorpaixaocorretor@gmail.com";"IGOR SANTOS PAIXAO 018775045-99";"Igor";"M";"71992246320";"BA";0;0
"rochasantana@hotmail.com";"ASS SANTANA CORRETORA DE SEGUROS LTDA ME";;"J";"71987841229";"BA";1;0
"contato@imacorretora.com.br";"IMA CORRETORA SE SEGUROS LTDA ME";;"J";"11998572596";"SP";0;0
"patricialimacorretoradeseguros@gmail.com";"PATRICIA LIMA - MEI";"patricia";"M";"71991306048";"BA";0;0
"clo_silva@hotmail.com";"CLODOALDO SANTOS DA SILVA";"Clodoaldo";"F";"71986643080";"BA";0;0
"adriana73_corretora@outlook.com";"ADRIANA GONCALVES DE MOURA";"adriana";"F";"71986295427";"BA";0;0
"fsafilho69@gmail.com";"FLORIANO SANTOS AZEVEDO FILHO";"Floriano";"F";"71992576987";"BA";0;0
"vaniacarla.corretoradeseguros@gmail.com";"CONTRATE CORRETORA DE SEGUROS";"Vania";"J";"75998277159";"BA";1;0
"cynthiamendes_cms@hotmail.com";"CYNTHIA MARIA MENDES DA SILVA - MEI";;"M";"81988159489";"PE";0;0
"oikonomiaseguros@gmail.com";"OIKONOMIA CORRETORA DE SEGUROS";;"J";"77981140902";"BA";1;0
"josemarcossramos@gmail.com";"JOSE MARCOS DA CRUZ RAMOS";"Marcos";"F";"71986491595";"BA";0;0
"deiseeabel@hotmail.com";"ANDRE LUIS DOS ANJOS OLIVEIRA";;"F";"71987106209";"BA";0;0
"andreia_novaess@hotmail.com";"ANDREIA NOVAES SANTOS";;"F";"71987442732";"BA";0;0
"luciana.moura@cliquesaude.net";"LUCIANA DE SOUZA MOURA BAGGI";"Luciana";"F";"71992717823";"BA";0;0
"adriano@mdsrep.com.br";"MDS CORRETORA E ADMINISTRADORA DE SEGUROS LTDA";"Adriano";"J";"71988027200";"BA";0;0
"vanessafuezi@gmail.com";"VIVIANE MARIA DOS SANTOS FUEZI";"viviane";"F";"71987046411";"BA";0;0
"paula_bemestar@hotmail.com";"ANA PAULA SILVA SANTOS";;"F";"77988065110";"BA";0;0
"jamilebomfim_renascer@hotmail.com";"JAMILE DE FARO TELES BOMFIM - MEI";;"M";"71991566925";"BA";0;0
"gel2santos@hotmail.com";"GERUSA BISPO DOS SANTOS";"Gerusa";"F";"71988744435";"BA";0;0
"etevaldo@roadseg.com.br";"ROADSEG ADM E CORRETORA D SEGUROS LTDA";;"J";"75999731460";"BA";1;0
"contato@panteracorretoradeseguros.com.br";"PANTERA NEGRA ADMINISTRADORA E CORRETORA DE SEGUROS LTDA";;"J";"77988351108";"BA";1;0
"comercial@percentualseguros.com.br";"PERCENTUAL CORRETORA DE SEGUROS LTDA";;"J";"79999501047";"SE";1;0
"souzabreno89@hotmail.com";"CLAUDIO EMANUEL ADM E CORRETORA DE SEGUROS LTDA";;"J";"73988368474";"BA";0;0
"radanseguros@radanseguros.com.br";"RADAN ADMINISTRADORA E CORRETORA DE SEGUROS LTDA -ME";"rafael";"J";;"BA";1;0
"roberiocostaadm@hotmail.com";"ROBERIO CARDOSO COSTA JUNIOR";"ROBERIO";"F";"71992377616";"BA";0;0
"silvia2513@gmail.com";"SILVIA LETICIA PEREIRA CARNEIRO RIBEIRO";;"F";"71987668060";"BA";0;0
"corretora.debora@hotmail.com";"DEBORA CRISTINA DE SOUZA RODRIGUES";"Debora";"F";"71991177856";"BA";0;0
"jabs@jabseguros.com.br";"JABS ADM E CORRETORA DE SEGUROS LTDA";;"J";"71981032584";"BA";1;0
"wagner@afncorretora.com";"AFN ADM  E CORRETORA DE SEGUROS EIRELI ME";;"J";"71991915588";"BA";1;0
"tiagocarvalholibra@outlook.com";"TIAGO SOUZA CARVALHO";"tiago";"F";"71992291399";"BA";0;0
"gherald.juniorferreira@gmail.com";"GERALDO FERREIRA LOPES JUNIOR";"Geraldo";"F";"77998486497";"BA";0;0
"marcla.ba.adm@gmail.com";"MARCLA PRESTACAO DE SERVICOS LTDA";"Givanildo";"J";"71993960325";"BA";0;0
"leoney.las@gmail.com";"LEONEI ALMEIDA SANTOS";"Leonei";"F";"71991349009";"BA";0;0
"faccinicor@hotmail.com";"FACCINI CORRETORA E ADMINISTRADORA LTDA";;"J";"71999841422";"ES";1;0
"rcunha220@gmail.com";"R C MAGALHAES COMERCIO E REPRESENTACOES  LTDA";"rafael";"J";"96981405928";"AP";0;0
"eloina@megamasterseguros.com.br";"MEGA MASTER ADM E CORRETORA DE SEGUROS LTDA";;"J";"73988681763";"BA";1;0
"sacadm@veloxmail.com.br";"ROTA RV COMERCIO DE PRODUTOS ALIMENTICIOS LTDA";;"J";;"BA";0;0
"roberto@protecaobrasil.com.br";"RC CORRETORA - ROBERTO CARLOS MOREIRA";;"J";"71987354088";"BA";1;0
"selmacarvalho1999@hotmail.com";"SELMA CARVALHO CEZAR - MEI";"selma";"M";"73988367955";"BA";0;0
"invistaemconsorcios@hotmail.com";"ANA CLAUDIA BACELAR FERREIRA ME";"Ana";"J";"71988997217";"BA";0;0
"paivaecorreia.rep@gmail.com";"DIOGO SOARES PAIVA - ME";;"J";"71985129603";"BA";0;0
"apmurici@gmail.com";"ANA PAULA MURICI FERREIRA";;"F";"71991239796";"BA";0;0
"rafael@rvseguros.net";"RV CORRETORA DE SEGUROS LTDA";;"J";"71999933504";"BA";1;0
"	haldreyrg@hotmail.com";"HALDREY REGINA GENEROSO";"Haldrey";"F";"71999145804";"BA";0;0
"martinsroniele@hotmail.com";"RONIELE MARTINS DOS SANTOS";"roniele";"F";"71993995860";"BA";0;0
"carlacostaimobiliaria@gmail.com";"CARLA DOS SANTOS COSTA";"CARLA";"F";"71985249215";"BA";0;0
"airtonliima@outlook.com.br";"JAQUELINE ALMEIDA MAGALHAES";"Jaqueline";"F";"71982690445";"BA";0;0
"bernadetesilva2008@hotmail.com";"BERNADETE MARIA DA SILVA";"BERNADETE";"F";"71996354246";"BA";0;0
"monique-magalhaes@live.com";"MONIQUE BATISTA MAGALHAES SANTOS";"Monique";"F";"71988734072";"BA";0;0
"rafael.marquesramos@hotmail.com";"RAFAEL MARQUES RAMOS";"rafael";"F";"71993560554";"BA";0;0
"mmrego@gmail.com";"MARIANA MARCIA MELO DE MORAIS REGO";"Mariana";"F";"77988482445";"BA";0;0
"cesar.10nascimento@hotmail.com";"ROBERTO CESAR DO NASCIMENTO";"cesar";"F";"71987207211";"BA";0;0
"	gds.lazul@gmail.com";"VOCE CORRETORA DE SEGUROS ME";;"J";"71991293413";"BA";1;0
"fabricioserra@hotmail.com.br";"FABRICIO SERRA DE SALES";;"F";"71981112986";"BA";0;0
"vanilson.silva@centraldosplanos.net";"VANILSON DE JESUS SILVA";;"F";"71981505643";"BA";0;0
"orlando.cn@hotmail.com";"MADRID PRIME CORRETORA DE SEGUROS LTDA";;"J";"71999651902";"BA";1;0
"sorayacerqueira@hotmail.com";"SORAYA CONCEICAO GIL BRAZ SOUZA CERQUEIRA";"soraya";"F";"71988925467";"BA";0;0
"priscilafranco33@yahoo.com.br";"PRISCILA DE OLIVEIRA FRANCO";;"F";"71983715189";"BA";0;0
"mariano.piton@hotmail.com";"JOSE MARIANO PITON DA SILVA";"Mariano";"F";"73998661960";"BA";0;0
"daniel.n.nunes@hotmail.com";"DANIEL MONTEIRO NUNES - MEI";;"M";"96981200240";"AP";0;0
"mtx26@bol.com.br";"MARCIO SANTOS TEIXEIRA";;"F";"75988144446";"BA";1;0
"patriciarizzoo@gmail.com";"PATRICIA RIZZO MULLEM";;"F";"71988629910";"BA";0;0
"diaquino@globo.com";"DIRAN AQUINO DE LIMA";"Diran";"F";"71987080080";"BA";0;0
"contato@rvrcorretoradeseguros.com.br";"RVR ADMINISTRADORA E CORRETORA DE SEGUROS";"renato";"J";"71985558343";"BA";0;0
"sergio@delreisseruros.com";"DEL REI ADMINISTRADORA E CORRETORA DE SEGUROS LTDA ME";"Sergio";"J";"71999668988";"BA";0;0
"vale.corretora@valecorretoradeseguros.com.br";"VALE ADMINISTRADORA E CORRETORA DE SEGUROS LTDA ME";;"J";"77988013870";"BA";1;0
"lordaoseg13@hotmail.com";"LORDAO CORRETORA DE SEGUROS LTDA";"Marcos";"J";"71987963311";"BA";1;0
"dinosegurosgbi@gmail.com";"DINO ADM E CORRETORA DE SEGUROS LTDA ME";;"J";"77988087954";"BA";1;0
"starseguros@starseguros.com.br";"STAR ADM E CORRETORA  DE SEGUROS LTDA";;"J";"75999722982";"BA";0;0
"linklima@hotmail.com";"EULINA SILVA LIMA";"Eulina";"F";"71992753325";"BA";0;0
"rafaeldaltro@portalcred.com";"NETO E REGO LTDA - ME";"rafael";"J";"71999556723";"BA";0;0
"bdadcor@gmail.com";"BD ADCOR CORRETORA DE SEGUROS";;"J";"74999522821";"BA";1;0
"paulo@passicseguros.com.br";"SEGURA BRASIL ASSESSORIA E CONSULTORIA EMPRESARIAL";;"J";"77981315555";"BA";1;0
"jethaseguros@gmail.com";"JETHA CORRETORA DE SEGUROS LTDA";;"J";"71999706562";"BA";1;0
"sempre@sempreetica.com.br";"SEMPRE ETICA CORRETAGEM DE SEGUROS LTDA";;"J";"71999565099";"BA";1;0
"gerusameira@yahoo.com.br";"NOVA SUDOESTE ADMINISTRADORA E CORRETORA DE SEGUROS LTDA ME";"Danilo";"J";"77999475602";"BA";1;0
"arthur.vendas.amil@outlook.com";"ARTHUR BEZERRA BARROS - MEI";"arthur";"M";"88999273525";"CE";0;0
"ricardo.henrique2010@hotmail.com";"RICARDO HENRIQUE DOS SANTOS SILVA";;"F";"71987558375";"BA";0;0
"comercial@valeseguros.org";"VALE CONSULTORIA E CORRETAGEM DE SEGUROS LTDA ME";;"J";"75999943500";"BA";1;0
"prevlifeseguros@gmail.com";"PREV LIFE SEGUROS LTDA ME";;"J";"73991422948";"BA";1;0
"fraga.sandra@yahoo.com.br";"SANDRA REGINA DA SILVA FRAGA";"sandra";"F";"71986573637";"BA";0;0
"marco.freitas@lagosseguros.com.br";"LAGOS CORRETORA DE SEGUROS LTDA ME";;"J";"71981188884";"BA";1;0
"mhax@foxseguros.com.br";"MHAX ADM E CORRETORA DE SEGUROS LTDA ME";;"J";;"BA";1;0
"seguroscastro1992@gmail.com";"CORRETORA DE SEGUROS CASTRO LTDA";"Alcyr";"J";"71999728076";"BA";1;0
"cristianesseguros@outlook.com";"CRISTIANE SERGIO BLANCO";"Cristiane";"F";"71992243008";"BA";0;0
"paulafreitas.consultorias@gmail.com";"NOVA VIDA ATITUDE LTDA - ME";"paula";"J";"11950005587";"SP";0;0
"adriana.medeiros1@hotmail.com";"ADRIANA RODRIGUES DE LIMA MEDEIROS";;"F";"71991882424";"BA";0;0
"andrea.ssantos11@hotmail.com";"ANDREA CRISTINA DA SILVA SANTOS";"andrea";"F";"71991069727";"BA";0;0
"tathymelo_73@hotmail.com";"TATIANA SALES FERREIRA DE MELO";"tatiana";"F";"71987774122";"BA";0;0
"comercial@natuseg.com.br";"PLATAFORMA AUTORIZADA DE NEGOCIOS LTDA";"ALEX";"J";"71981010600";"CE";0;0
"natysetorcomercial@hotmail.com";"NATALIA MACEDO DA SILVA";"natalia";"F";"71988492205";"BA";0;0
"mrepresentacoes.muli@gmail.com";"MARINA COSTA FERREIRA";;"M";"77991926425";"BA";0;0
"sergio-pdj@vive.com";"SERGIO RICARDO DOS SANTOS REIS";;"F";"71991040074";"BA";0;0
"uniaoseguros@bol.com.br";"E N LUZ CORRETORA DE SEGUROS - EMPRESA INDIVIDUAL";"Luiz";"J";"87988199702";"PE";0;0
"fabyr.consorcio@gmail.com";"FAP INTERMEDIACAO E AGENCIAMENTO DE CONSORCIOS EIRELI ME";"Fabiana";"J";"71992420419";"BA";0;0
"niltonlulo_781@hotmail.com";"JOSE NILTON MACHADO DE SOUZA";"Nilton";"F";"71987310175";"BA";0;0
"joelma@cagriosassessoria.com.br";"JOELMA PEDREIRA SANTOS PALMA";;"F";"71987841269";"BA";0;0
"mgr.amaral07@gmail.com";"MARCELA AMARAL REIS";;"F";"71993167696";"BA";0;0
"goolima@hotmail.com";"MARIA GORETTE DE OLIVEIRA LIMA";"Gorette";"F";"71991923356";"BA";0;0
"neuzagusmao53@gmail.com";"NEUZA MARIA DE GUSMAO";"neuza";"F";"71993909077";"BA";0;0
"tamiferri@gmail.com";"TAMIRIS FEREIRA DA SILVA";"tamiris";"F";"71993852509";"BA";0;0
"simplesconsultas@hotmail.com";"ADRIANA SOUZA SANTOS";"adriana";"F";"71999962133";"BA";0;0
"eligramosa@gmail.com";"ELIANA MARIA DE SOUZA GRAMOSA DA SILVA";"Eliana";"F";"71991928715";"BA";0;0
"recadoclaudiocesar@outlook.com";"CLAUDIO CESAR DE JESUS DA CRUZ - MEI";"Claudio";"M";"71992153194";"BA";0;0
"evaluiza.1205@gmail.com";"ARAUJO CORRETORA DE SEGUROS EIRELI - ME";"eva";"J";"71993638242";"BA";0;0
"divinocredito@hotmail.com";"VALDEVINO DE JESUS BONFIM - MEI";;"M";"71987205434";"BA";0;0
"ltcorretoradesegs@gmail.com";"L&T CORRETORA DE SEGUROS - MARIA LUCIA ROSENDO DE PAIVA - ME";"LUCIA";"J";"71999630620";"BA";1;0
"thiago@alvesemaia.com.br";"ALVES MAIA CORRETORA DE SEGUROS LTDA ME";"Thiago";"J";"77988251201";"BA";0;0
"fabio_rigaud@hotmail.com";"FABIO DE ANDRADE RIGAUD";;"F";"71991770484";"BA";0;0
"marial.1234@hotmail.com";"MARIA JOSE DE JESUS PEREIRA";;"F";"71987979364";"BA";0;0
"silviocardoso1@hotmail.com";"SILVIO MARIO FARIA CARDOSO";"SILVIO";"F";"71999139166";"BA";0;0
"anjonegreo_102@hotmail.com";"GUSTAVO MIRANDA SANTOS";;"F";"71986234054";"BA";0;0
"lsinara@yahoo.com.br";"C E  SERVICOS - CAROLINE EMANUELE RAMOS DAS SANTOS ME";;"J";"75992668405";"BA";0;0
"roberto.lissapromotora@gmail.com";"LISSA PROMOTORA DE VENDAS E SERVIÇOS";"Roberto";"J";"71991980021";"BA";0;0
"betostyllusinformatica@hotmail.com";"ROBERTO SOUZA CARDEAL - ME";"roberto";"J";"75981575796";"BA";0;0
"contato@alloseguros.com.br";"ALLO CORRETORA DE SEGUROS LTDA-ME";;"J";"71999191610";"BA";0;0
"maira@jmpep.com.br";"MAIRA MARIA DE OLIVEIRA RIBEIRO DA SILVA";"Maira";"F";"71987632584";"BA";0;0
"kelley.freitas@safesefuros.com.br";"KELLEY CRISTINA OLIVEIRA FREITAS";"Kelley";"F";"71988140286";"BA";1;0
"luck1893@outlook.com";"LUCAS DA SILVA FERREIRA";"Lucas";"F";"71982027702";"BA";0;0
"oliveiraseguros10@gmail.com";"ALDAIR ALBERTO DE OLIVEIRA SANTOS - MEI";;"M";"71992981410";"BA";0;0
"lanapraia@hotmail.com";"ELANICE SOUSA PRAIA";"Elanice";"F";"71987204786";"BA";0;0
"amoreterno1801@gmail.com";"LEANDRO SANTANA DOS SANTOS";"Leandro";"F";"71988068751";"BA";0;0
"ulissescosta90@outlook.com";"ULISSES DA SILVA COSTA";"ulisses";"F";"71986133589";"BA";0;0
"mbsjr3@gmail.com";"MAURICIO BEZERRA DA SILVA JUNIOR";"Mauricio";"F";"71986151434";"BA";0;0
"anbracorretora@gmail.com";"ANGELA BRAGA MAIA CARICCHIO";"angela";"F";"71999060725";"BA";0;0
"veridiana@essencialvidacorretora.com.br";"ESSENCIAL VIDA CORRETORA - VERIDIANA CRISTINA DA SILVA REIS - EMPRESARIO INDIVIDUAL";;"J";"41995266490";"PR";0;0
"santosmco@hotmail.com";"MANUEL CLODOALDO DE OLIVEIRA DOS SANTOS";;"F";"71987079820";"BA";0;0
"3wseguros@3wseguros.com.br";"3W CORRETORA DE SEGUROS LTDA ME";"washington";"J";"81999840978";"PE";0;0
"comercial@afincoseguros.com.br";"AFINCO CORRETORA DE SEGUROS LTDA - ME";;"J";"71996108369";"BA";0;0
"jfernandessousa@hotmail.com";"JOSE FERNANDES DE SOUSA";"Fernandes";"F";"71986206293";"BA";0;0
"figueira.adriano@gmail.com";"ADRIANO JORGE CAMERA FIGUEIRA";"adriano";"F";"71993106640";"BA";0;0
"hugo.vendastecnica@gmail.com";"HUGO CESAR DE OLIVEIRA SOUZA";;"F";"71982181426";"BA";0;0
"patrickbradesc@gmail.com";"PATRICIA SANTOS CORDEIRO";"PATRICIA";"F";"71992167547";"BA";0;0
"lucasventin@hotmail.com";"LUCAS VENTIN FERREIRA PINTO";"Lucas";"F";"71981489777";"BA";0;0
"ficseguro@gmail.com";"PAULO GUILHERME SILVA DE CARVALHO";"paulo";"F";"71999859794";"BA";0;0
"ariene07.ass@gmail.com";"ARIENE SANTOS";"ariene";"J";"71987399550";"BA";0;0
"alianca.consorcios@gmail.com";"GILVANIA OLIVEIRA DOS SANTOS - MEI";;"M";;"BA";0;0
"palomacorretoradeseguros@gmail.com";"PALOMA PAIXAO DOS SANTOS MOARES";"paloma";"F";"71999181838";"BA";1;0
"rafaellincolnfernandes1@gmail.com";"RAFAEL LINCOLN DA SILVA FERNANDES";;"F";"71992918086";"BA";0;0
"paulamarinho31@hotmail.com";"ANA PAULA JESUS MARINHO";;"F";"71999014655";"BA";0;0
"edneuzanovaes@hotmail.com";"EDNEUZA DE OLIVEIRA NOVAES CAMERA SANTOS";;"F";"71988665872";"BA";0;0
"lrassessoriaseguros@hotmail.com";"LR ASSESSORIA - LUIZ ALBERTO HENRIQUE SCHRAMM - MEI";"Luiz";"M";"71985070416";"BA";0;0
"juremac70@gmail.com";"C 70 CORRETORA DE SEGUROS EIRELI - EPP";"JUREMA";"J";"71991096003";"BA";1;0
"gleidson-ssa@hotmail.com";"GLEIDSON DOS SANTOS";"Gleidson";"F";"71991421407";"BA";0;0
"asogunsebastian@gmail.com";"SEBASTIANO CARDOSOAFONSO DE LUCA";;"F";"71985220089";"BA";0;0
"ana_m_prado@hotmail.com";"ANA MARIA DO PRADO";;"F";"35999849743";"MG";0;0
"njsou10@hotmail.com";"NERIS EDUARDA JESUS DE SOUZA";"Neris";"F";"71988177743";"BA";0;0
"atendimento.ibcred@gmail.com";"BRUNA TATIANA SANTOS RIBEIRO";;"F";"71996657778";"BA";0;0
"mdborgcontabil@uol.com.br";"FERNANDO CALMON FIGUEIREDO - ME";"FERNANDO";"J";"71992883442";"BA";0;0
